// Material.003 genrated by blender2ogre 0.6.0

material Material.003 
{
    receive_shadows on 

    technique
    {
        pass Material.003
        {
            ambient 0.23301567137241364 0.11928943544626236 0.03363887965679169 1.0
            diffuse 0.18641253987569417 0.09543154977905077 0.026911104126440044 1.0
            specular 0.5 0.5 0.5 1.0 12.0
            emissive 0.0 0.0 0.0 1.0

            alpha_to_coverage off
            colour_write on
            cull_hardware clockwise
            depth_check on
            depth_func less_equal
            depth_write on
            illumination_stage 
            light_clip_planes off
            light_scissor off
            lighting on
            normalise_normals off
            polygon_mode solid
            scene_blend one zero
            scene_blend_op add
            shading gouraud
            transparent_sorting on

        }
    }
}
