# Blender MTL File: 'rock.blend'
# Material Count: 1

newmtl Material
Ns 96.078431
Ka 0.000000 0.000000 0.000000
Kd 0.640000 0.640000 0.640000
Ks 0.100000 0.100000 0.100000
Ni 1.000000
d 1.000000
illum 2
map_Bump .
map_Kd SDK/gfx/stone_texture___seamless_by_agf81-d39vfot.jpg
