// Mial.003 genrated by blender2ogre 0.6.0

material Mial.003 
{
    receive_shadows on 

    technique
    {
        pass Mial.003
        {
            ambient 0.800000011920929 0.1159181147813797 0.23887395858764648 1.0
            diffuse 0.6400000190734865 0.09273449320695537 0.19109916971771668 1.0
            specular 0.5 0.5 0.5 1.0 12.5
            emissive 0.0 0.0 0.0 1.0

            alpha_to_coverage off
            colour_write on
            cull_hardware clockwise
            depth_check on
            depth_func less_equal
            depth_write on
            illumination_stage 
            light_clip_planes off
            light_scissor off
            lighting on
            normalise_normals off
            polygon_mode solid
            scene_blend one zero
            scene_blend_op add
            shading gouraud
            transparent_sorting on

        }
    }
}
