// Cable rojo genrated by blender2ogre 0.6.0

material Cable rojo 
{
    receive_shadows on 

    technique
    {
        pass Cable rojo
        {
            ambient 0.800000011920929 0.032000016421079636 0.032000016421079636 1.0
            diffuse 0.6400000190734865 0.02560001351833363 0.02560001351833363 1.0
            specular 0.5 0.5 0.5 1.0 12.5
            emissive 0.0 0.0 0.0 1.0

            alpha_to_coverage off
            colour_write on
            cull_hardware clockwise
            depth_check on
            depth_func less_equal
            depth_write on
            illumination_stage 
            light_clip_planes off
            light_scissor off
            lighting on
            normalise_normals off
            polygon_mode solid
            scene_blend one zero
            scene_blend_op add
            shading gouraud
            transparent_sorting on

        }
    }
}
