# Blender v2.69 (sub 0) OBJ File: 'barrel.blend'
# www.blender.org
mtllib barrel.mtl
o Cylinder
v 0.427374 0.116513 -0.242880
v 0.680518 0.116513 -0.268194
v 0.427374 0.096759 -0.240934
v 0.680518 0.091820 -0.265762
v 0.427374 0.077764 -0.235172
v 0.680518 0.068076 -0.258559
v 0.814881 0.069808 -0.220673
v 0.680518 0.046194 -0.246863
v 0.814881 0.054464 -0.208080
v 0.680518 0.027014 -0.231122
v 0.814881 0.041871 -0.192736
v 0.680518 0.011273 -0.211942
v 0.814881 0.032514 -0.175230
v 0.680518 -0.000424 -0.190059
v 0.814881 0.026752 -0.156235
v 0.680518 -0.007626 -0.166315
v 0.814881 0.024806 -0.136481
v 0.680518 -0.010059 -0.141622
v 0.814881 0.026752 -0.116726
v 0.680518 -0.007626 -0.116929
v 0.814881 0.032514 -0.097731
v 0.680518 -0.000424 -0.093185
v 0.814881 0.041871 -0.080225
v 0.680518 0.011273 -0.071303
v 0.814881 0.054464 -0.064881
v 0.680518 0.027014 -0.052122
v 0.814881 0.069808 -0.052288
v 0.680518 0.046194 -0.036381
v 0.814881 0.087314 -0.042931
v 0.680518 0.068076 -0.024685
v 0.814881 0.106309 -0.037169
v 0.680518 0.091820 -0.017482
v 0.814881 0.126064 -0.035223
v 0.680518 0.116513 -0.015050
v 0.814881 0.145818 -0.037169
v 0.680518 0.141206 -0.017482
v 0.814881 0.164813 -0.042931
v 0.680518 0.164950 -0.024685
v 0.814881 0.182319 -0.052288
v 0.680518 0.186833 -0.036381
v 0.814881 0.197664 -0.064881
v 0.680518 0.206013 -0.052122
v 0.814881 0.210256 -0.080225
v 0.680518 0.221754 -0.071303
v 0.814881 0.219614 -0.097731
v 0.680518 0.233451 -0.093185
v 0.427374 0.215825 -0.121868
v 0.680518 0.240653 -0.116929
v 0.427374 0.217771 -0.141622
v 0.680518 0.243085 -0.141622
v 0.427374 0.215825 -0.161377
v 0.680518 0.240653 -0.166315
v 0.427374 0.210063 -0.180372
v 0.680518 0.233451 -0.190059
v 0.427374 0.200706 -0.197878
v 0.680518 0.221754 -0.211942
v 0.427374 0.188113 -0.213222
v 0.680518 0.206013 -0.231122
v 0.427374 0.172769 -0.225815
v 0.680518 0.186833 -0.246863
v 0.427374 0.155263 -0.235172
v 0.680518 0.164950 -0.258559
v 0.427374 0.136268 -0.240934
v 0.680518 0.141206 -0.265762
v 0.680518 0.116513 -0.141622
v -0.000000 0.619379 -0.969329
v -0.000000 0.773033 -0.953254
v 0.189107 0.619380 -0.950704
v 0.185970 0.773033 -0.934937
v 0.370946 0.619380 -0.895543
v 0.364794 0.773033 -0.880692
v 0.538530 0.619380 -0.805968
v 0.529599 0.773033 -0.792601
v 0.685419 0.619380 -0.685419
v 0.674052 0.773033 -0.674052
v 0.805968 0.619380 -0.538530
v 0.792601 0.773033 -0.529599
v 0.895543 0.619380 -0.370946
v 0.880691 0.773033 -0.364794
v 0.950704 0.619380 -0.189107
v 0.934937 0.773033 -0.185971
v 0.969329 0.619380 -0.000000
v 0.953254 0.773033 -0.000000
v 0.950704 0.619380 0.189107
v 0.934937 0.773033 0.185970
v 0.895543 0.619380 0.370946
v 0.880691 0.773033 0.364794
v 0.805968 0.619380 0.538530
v 0.792601 0.773033 0.529599
v 0.685419 0.619380 0.685419
v 0.674052 0.773033 0.674052
v 0.538530 0.619380 0.805968
v 0.529599 0.773033 0.792602
v 0.370946 0.619380 0.895544
v 0.364794 0.773033 0.880692
v 0.189106 0.619380 0.950704
v 0.185970 0.773033 0.934937
v -0.000000 0.619380 0.969329
v -0.000000 0.773033 0.953254
v -0.189107 0.619380 0.950704
v -0.185971 0.773033 0.934937
v -0.370947 0.619379 0.895543
v -0.364795 0.773033 0.880691
v -0.538531 0.619379 0.805968
v -0.529600 0.773033 0.792601
v -0.685420 0.619379 0.685419
v -0.674053 0.773033 0.674052
v -0.805968 0.619379 0.538530
v -0.792602 0.773033 0.529599
v -0.895544 0.619379 0.370945
v -0.880692 0.773033 0.364794
v -0.950704 0.619379 0.189106
v -0.934937 0.773033 0.185970
v -0.969329 0.619379 -0.000001
v -0.953254 0.773033 -0.000001
v -0.950704 0.619379 -0.189108
v -0.934937 0.773033 -0.185972
v -0.895543 0.619379 -0.370947
v -0.880691 0.773033 -0.364795
v -0.805967 0.619379 -0.538531
v -0.792601 0.773033 -0.529600
v -0.685418 0.619379 -0.685420
v -0.674051 0.773033 -0.674053
v -0.538529 0.619379 -0.805969
v -0.529598 0.773033 -0.792602
v -0.370945 0.619379 -0.895544
v -0.364793 0.773033 -0.880692
v -0.189105 0.619379 -0.950704
v -0.185969 0.773033 -0.934937
v -0.000000 0.639483 -0.973608
v -0.000000 0.752929 -0.957461
v 0.189941 0.639483 -0.954900
v 0.186791 0.752929 -0.939064
v 0.372583 0.639483 -0.899496
v 0.366404 0.752929 -0.884579
v 0.540907 0.639483 -0.809525
v 0.531937 0.752929 -0.796100
v 0.688444 0.639483 -0.688445
v 0.677027 0.752930 -0.677027
v 0.809525 0.639484 -0.540907
v 0.796100 0.752930 -0.531937
v 0.899496 0.639484 -0.372584
v 0.884579 0.752930 -0.366405
v 0.954900 0.639484 -0.189941
v 0.939064 0.752930 -0.186791
v 0.973608 0.639484 -0.000000
v 0.957461 0.752930 -0.000000
v 0.954900 0.639484 0.189941
v 0.939064 0.752930 0.186791
v 0.899496 0.639484 0.372583
v 0.884579 0.752930 0.366404
v 0.809525 0.639484 0.540907
v 0.796100 0.752930 0.531937
v 0.688444 0.639483 0.688445
v 0.677027 0.752930 0.677027
v 0.540907 0.639483 0.809525
v 0.531937 0.752930 0.796100
v 0.372583 0.639483 0.899496
v 0.366404 0.752929 0.884579
v 0.189941 0.639483 0.954900
v 0.186791 0.752929 0.939064
v -0.000000 0.639483 0.973608
v -0.000000 0.752929 0.957461
v -0.189942 0.639483 0.954900
v -0.186792 0.752929 0.939064
v -0.372584 0.639483 0.899496
v -0.366405 0.752929 0.884579
v -0.540908 0.639483 0.809525
v -0.531938 0.752929 0.796100
v -0.688445 0.639483 0.688444
v -0.677028 0.752929 0.677027
v -0.809526 0.639483 0.540907
v -0.796100 0.752929 0.531936
v -0.899497 0.639483 0.372583
v -0.884579 0.752929 0.366404
v -0.954900 0.639483 0.189941
v -0.939064 0.752929 0.186791
v -0.973608 0.639483 -0.000001
v -0.957461 0.752929 -0.000001
v -0.954900 0.639483 -0.189942
v -0.939064 0.752929 -0.186792
v -0.899496 0.639483 -0.372585
v -0.884579 0.752929 -0.366406
v -0.809525 0.639483 -0.540908
v -0.796099 0.752929 -0.531938
v -0.688444 0.639483 -0.688445
v -0.677027 0.752929 -0.677028
v -0.540906 0.639483 -0.809526
v -0.531936 0.752929 -0.796101
v -0.372582 0.639483 -0.899497
v -0.366403 0.752929 -0.884579
v -0.189940 0.639483 -0.954900
v -0.186790 0.752929 -0.939064
v -0.000000 0.619380 -0.921571
v 0.179790 0.619380 -0.903863
v 0.352670 0.619380 -0.851421
v 0.511997 0.619380 -0.766258
v 0.651649 0.619380 -0.651649
v 0.766258 0.619380 -0.511997
v 0.851421 0.619380 -0.352670
v 0.903863 0.619380 -0.179790
v 0.921571 0.619380 -0.000000
v 0.903863 0.619380 0.179790
v 0.851421 0.619380 0.352670
v 0.766258 0.619380 0.511998
v 0.651649 0.619380 0.651649
v 0.511997 0.619380 0.766259
v 0.352670 0.619380 0.851421
v 0.179789 0.619380 0.903864
v -0.000000 0.619380 0.921571
v -0.179790 0.619379 0.903863
v -0.352671 0.619379 0.851421
v -0.511998 0.619379 0.766258
v -0.651650 0.619379 0.651649
v -0.766259 0.619379 0.511997
v -0.851421 0.619379 0.352669
v -0.903864 0.619379 0.179789
v -0.921571 0.619379 -0.000001
v -0.903863 0.619379 -0.179791
v -0.851420 0.619379 -0.352671
v -0.766258 0.619379 -0.511998
v -0.651649 0.619379 -0.651650
v -0.511997 0.619379 -0.766259
v -0.352669 0.619379 -0.851421
v -0.179788 0.619379 -0.903864
v -0.000000 0.773033 -0.916248
v 0.178751 0.773033 -0.898643
v 0.350633 0.773033 -0.846503
v 0.509040 0.773033 -0.761833
v 0.647885 0.773033 -0.647886
v 0.761833 0.773033 -0.509040
v 0.846503 0.773033 -0.350633
v 0.898643 0.773033 -0.178751
v 0.916248 0.773033 -0.000000
v 0.898643 0.773033 0.178751
v 0.846503 0.773033 0.350633
v 0.761833 0.773033 0.509040
v 0.647885 0.773033 0.647885
v 0.509040 0.773033 0.761833
v 0.350633 0.773033 0.846503
v 0.178751 0.773033 0.898643
v -0.000000 0.773033 0.916248
v -0.178752 0.773033 0.898643
v -0.350634 0.773033 0.846503
v -0.509041 0.773033 0.761832
v -0.647886 0.773033 0.647885
v -0.761833 0.773033 0.509040
v -0.846504 0.773033 0.350632
v -0.898643 0.773033 0.178750
v -0.916249 0.773033 -0.000001
v -0.898643 0.773033 -0.178752
v -0.846503 0.773033 -0.350634
v -0.761832 0.773033 -0.509041
v -0.647885 0.773033 -0.647886
v -0.509039 0.773033 -0.761834
v -0.350632 0.773033 -0.846504
v -0.178750 0.773033 -0.898643
v -0.000000 -0.719040 -0.969329
v 0.000000 -0.872694 -0.953254
v -0.189107 -0.719040 -0.950704
v -0.185971 -0.872694 -0.934937
v -0.370946 -0.719040 -0.895543
v -0.364794 -0.872694 -0.880692
v -0.538531 -0.719040 -0.805968
v -0.529599 -0.872694 -0.792602
v -0.685419 -0.719040 -0.685419
v -0.674052 -0.872694 -0.674052
v -0.805968 -0.719040 -0.538530
v -0.792602 -0.872694 -0.529599
v -0.895543 -0.719040 -0.370946
v -0.880692 -0.872694 -0.364794
v -0.950704 -0.719040 -0.189107
v -0.934937 -0.872694 -0.185971
v -0.969329 -0.719040 -0.000000
v -0.953254 -0.872694 -0.000000
v -0.950704 -0.719040 0.189107
v -0.934937 -0.872694 0.185970
v -0.895544 -0.719041 0.370946
v -0.880692 -0.872694 0.364794
v -0.805968 -0.719041 0.538530
v -0.792602 -0.872694 0.529599
v -0.685419 -0.719041 0.685419
v -0.674052 -0.872694 0.674052
v -0.538530 -0.719041 0.805968
v -0.529599 -0.872694 0.792602
v -0.370946 -0.719041 0.895544
v -0.364794 -0.872694 0.880692
v -0.189107 -0.719041 0.950704
v -0.185970 -0.872694 0.934937
v 0.000000 -0.719041 0.969329
v 0.000000 -0.872694 0.953254
v 0.189107 -0.719041 0.950704
v 0.185971 -0.872694 0.934937
v 0.370947 -0.719040 0.895543
v 0.364795 -0.872694 0.880691
v 0.538531 -0.719040 0.805968
v 0.529600 -0.872694 0.792601
v 0.685420 -0.719040 0.685419
v 0.674053 -0.872694 0.674052
v 0.805968 -0.719040 0.538530
v 0.792602 -0.872694 0.529599
v 0.895544 -0.719040 0.370946
v 0.880692 -0.872694 0.364794
v 0.950704 -0.719040 0.189106
v 0.934937 -0.872694 0.185970
v 0.969329 -0.719040 -0.000001
v 0.953254 -0.872694 -0.000001
v 0.950704 -0.719040 -0.189108
v 0.934937 -0.872694 -0.185972
v 0.895543 -0.719040 -0.370947
v 0.880691 -0.872694 -0.364795
v 0.805967 -0.719040 -0.538531
v 0.792601 -0.872694 -0.529600
v 0.685418 -0.719040 -0.685420
v 0.674051 -0.872693 -0.674053
v 0.538529 -0.719040 -0.805969
v 0.529598 -0.872693 -0.792602
v 0.370945 -0.719040 -0.895544
v 0.364793 -0.872693 -0.880692
v 0.189105 -0.719040 -0.950704
v 0.185969 -0.872693 -0.934938
v -0.000000 -0.739237 -0.972002
v 0.000000 -0.852496 -0.955882
v -0.189628 -0.739237 -0.953325
v -0.186483 -0.852496 -0.937515
v -0.371969 -0.739237 -0.898013
v -0.365800 -0.852496 -0.883120
v -0.540015 -0.739237 -0.808190
v -0.531060 -0.852497 -0.794787
v -0.687309 -0.739237 -0.687309
v -0.675911 -0.852497 -0.675911
v -0.808190 -0.739237 -0.540015
v -0.794787 -0.852497 -0.531060
v -0.898013 -0.739237 -0.371969
v -0.883120 -0.852497 -0.365800
v -0.953325 -0.739238 -0.189628
v -0.937515 -0.852497 -0.186483
v -0.972002 -0.739238 -0.000000
v -0.955882 -0.852497 -0.000000
v -0.953325 -0.739238 0.189628
v -0.937515 -0.852497 0.186483
v -0.898013 -0.739238 0.371969
v -0.883120 -0.852497 0.365800
v -0.808190 -0.739238 0.540015
v -0.794787 -0.852497 0.531060
v -0.687309 -0.739238 0.687309
v -0.675911 -0.852497 0.675911
v -0.540015 -0.739238 0.808190
v -0.531060 -0.852497 0.794787
v -0.371969 -0.739238 0.898013
v -0.365800 -0.852497 0.883120
v -0.189628 -0.739238 0.953325
v -0.186483 -0.852497 0.937515
v 0.000000 -0.739238 0.972002
v 0.000000 -0.852497 0.955882
v 0.189629 -0.739238 0.953325
v 0.186484 -0.852497 0.937515
v 0.371969 -0.739238 0.898013
v 0.365801 -0.852497 0.883120
v 0.540016 -0.739238 0.808190
v 0.531060 -0.852497 0.794787
v 0.687310 -0.739237 0.687309
v 0.675911 -0.852497 0.675910
v 0.808191 -0.739237 0.540015
v 0.794787 -0.852497 0.531059
v 0.898013 -0.739237 0.371968
v 0.883120 -0.852497 0.365800
v 0.953325 -0.739237 0.189627
v 0.937515 -0.852497 0.186483
v 0.972002 -0.739237 -0.000001
v 0.955882 -0.852497 -0.000001
v 0.953325 -0.739237 -0.189629
v 0.937515 -0.852496 -0.186484
v 0.898012 -0.739237 -0.371970
v 0.883120 -0.852496 -0.365801
v 0.808190 -0.739237 -0.540016
v 0.794786 -0.852496 -0.531061
v 0.687308 -0.739237 -0.687310
v 0.675910 -0.852496 -0.675912
v 0.540014 -0.739237 -0.808191
v 0.531059 -0.852496 -0.794788
v 0.371968 -0.739237 -0.898013
v 0.365799 -0.852496 -0.883121
v 0.189627 -0.739237 -0.953326
v 0.186482 -0.852496 -0.937515
v -0.000000 -0.719040 -0.921571
v -0.179790 -0.719040 -0.903863
v -0.352670 -0.719040 -0.851421
v -0.511998 -0.719040 -0.766258
v -0.651649 -0.719040 -0.651649
v -0.766259 -0.719040 -0.511997
v -0.851421 -0.719040 -0.352670
v -0.903864 -0.719040 -0.179790
v -0.921571 -0.719040 -0.000000
v -0.903864 -0.719040 0.179790
v -0.851421 -0.719041 0.352670
v -0.766259 -0.719041 0.511998
v -0.651649 -0.719041 0.651649
v -0.511998 -0.719041 0.766259
v -0.352670 -0.719041 0.851421
v -0.179789 -0.719041 0.903864
v 0.000000 -0.719041 0.921571
v 0.179790 -0.719041 0.903863
v 0.352670 -0.719040 0.851421
v 0.511998 -0.719040 0.766258
v 0.651650 -0.719040 0.651649
v 0.766259 -0.719040 0.511997
v 0.851421 -0.719040 0.352669
v 0.903864 -0.719040 0.179789
v 0.921571 -0.719040 -0.000001
v 0.903863 -0.719040 -0.179791
v 0.851420 -0.719040 -0.352671
v 0.766258 -0.719040 -0.511999
v 0.651648 -0.719040 -0.651650
v 0.511997 -0.719040 -0.766259
v 0.352669 -0.719040 -0.851421
v 0.179788 -0.719040 -0.903864
v 0.000000 -0.872694 -0.916249
v -0.178751 -0.872694 -0.898643
v -0.350633 -0.872694 -0.846503
v -0.509040 -0.872694 -0.761833
v -0.647886 -0.872694 -0.647886
v -0.761833 -0.872694 -0.509040
v -0.846503 -0.872694 -0.350633
v -0.898643 -0.872694 -0.178751
v -0.916249 -0.872694 -0.000000
v -0.898643 -0.872694 0.178751
v -0.846503 -0.872694 0.350633
v -0.761833 -0.872694 0.509040
v -0.647886 -0.872694 0.647886
v -0.509040 -0.872694 0.761833
v -0.350633 -0.872694 0.846503
v -0.178751 -0.872694 0.898643
v 0.000000 -0.872694 0.916249
v 0.178752 -0.872694 0.898643
v 0.350634 -0.872694 0.846503
v 0.509041 -0.872694 0.761832
v 0.647886 -0.872694 0.647885
v 0.761833 -0.872694 0.509040
v 0.846504 -0.872694 0.350632
v 0.898643 -0.872694 0.178750
v 0.916249 -0.872694 -0.000001
v 0.898643 -0.872694 -0.178752
v 0.846503 -0.872694 -0.350634
v 0.761832 -0.872694 -0.509041
v 0.647885 -0.872693 -0.647886
v 0.509039 -0.872693 -0.761834
v 0.350632 -0.872693 -0.846504
v 0.178750 -0.872693 -0.898643
v 0.000000 -1.398428 -0.858644
v 0.000000 1.398428 -0.858644
v 0.167513 -1.398428 -0.842145
v 0.167513 1.398428 -0.842145
v 0.328589 -1.398428 -0.793284
v 0.328589 1.398428 -0.793284
v 0.477037 -1.398428 -0.713936
v 0.477037 1.398428 -0.713936
v 0.607153 -1.398428 -0.607153
v 0.607153 1.398428 -0.607153
v 0.713936 -1.398428 -0.477037
v 0.713936 1.398428 -0.477037
v 0.793284 -1.398428 -0.328589
v 0.793284 1.398428 -0.328589
v 0.842145 -1.398428 -0.167513
v 0.842145 1.398428 -0.167513
v 0.858644 -1.398428 -0.000000
v 0.858644 1.398428 -0.000000
v 0.842145 -1.398428 0.167513
v 0.842145 1.398428 0.167513
v 0.793284 -1.398428 0.328589
v 0.793284 1.398428 0.328589
v 0.713936 -1.398428 0.477037
v 0.713936 1.398428 0.477037
v 0.607153 -1.398428 0.607153
v 0.607153 1.398428 0.607153
v 0.477037 -1.398428 0.713936
v 0.477037 1.398428 0.713936
v 0.328589 -1.398428 0.793284
v 0.328589 1.398428 0.793284
v 0.167513 -1.398428 0.842145
v 0.167513 1.398428 0.842145
v -0.000000 -1.398428 0.858644
v -0.000000 1.398428 0.858644
v -0.167513 -1.398428 0.842145
v -0.167513 1.398428 0.842145
v -0.328589 -1.398428 0.793283
v -0.328589 1.398428 0.793283
v -0.477037 -1.398428 0.713936
v -0.477037 1.398428 0.713936
v -0.607153 -1.398428 0.607152
v -0.607153 1.398428 0.607152
v -0.713937 -1.398428 0.477036
v -0.713937 1.398428 0.477036
v -0.793284 -1.398428 0.328588
v -0.793284 1.398428 0.328588
v -0.842145 -1.398428 0.167512
v -0.842145 1.398428 0.167512
v -0.858644 -1.398428 -0.000001
v -0.858644 1.398428 -0.000001
v -0.842145 -1.398428 -0.167514
v -0.842145 1.398428 -0.167514
v -0.793283 -1.398428 -0.328590
v -0.793283 1.398428 -0.328590
v -0.713936 -1.398428 -0.477038
v -0.713936 1.398428 -0.477038
v -0.607152 -1.398428 -0.607154
v -0.607152 1.398428 -0.607154
v -0.477036 -1.398428 -0.713937
v -0.477036 1.398428 -0.713937
v -0.328588 -1.398428 -0.793284
v -0.328588 1.398428 -0.793284
v -0.167512 -1.398428 -0.842146
v -0.167512 1.398428 -0.842146
v 0.000000 0.000000 -0.966399
v 0.188535 0.000000 -0.947829
v 0.369825 0.000000 -0.892836
v 0.536902 0.000000 -0.803531
v 0.683347 0.000000 -0.683347
v 0.803531 0.000000 -0.536902
v 0.892836 0.000000 -0.369825
v 0.947829 0.000000 -0.188535
v 0.966399 0.000000 -0.000000
v 0.947829 0.000000 0.188535
v 0.892836 0.000000 0.369825
v 0.803531 0.000000 0.536902
v 0.683347 0.000000 0.683347
v 0.536902 0.000000 0.803531
v 0.369825 0.000000 0.892836
v 0.188535 0.000000 0.947829
v -0.000000 0.000000 0.966398
v -0.188535 0.000000 0.947829
v -0.369825 0.000000 0.892836
v -0.536903 0.000000 0.803531
v -0.683347 0.000000 0.683347
v -0.803531 0.000000 0.536902
v -0.892836 0.000000 0.369824
v -0.947830 0.000000 0.188534
v -0.966399 0.000000 -0.000001
v -0.947829 0.000000 -0.188536
v -0.892835 0.000000 -0.369826
v -0.803530 0.000000 -0.536903
v -0.683346 0.000000 -0.683348
v -0.536901 0.000000 -0.803532
v -0.369823 0.000000 -0.892836
v -0.188534 0.000000 -0.947830
v -0.934361 0.716778 0.185855
v -0.880149 0.716778 0.364569
v -0.792114 0.716778 0.529273
v -0.673637 0.716778 0.673636
v 0.529273 0.716778 -0.792113
v 0.364570 0.716778 -0.880149
v 0.185856 0.716778 -0.934361
v 0.000000 0.716778 -0.952667
v 0.934361 -0.716778 0.185856
v 0.880149 -0.716778 0.364570
v 0.792113 -0.716778 0.529273
v 0.673637 -0.716778 0.673637
v 0.934361 0.716778 -0.185856
v 0.880149 0.716778 -0.364570
v 0.792113 0.716778 -0.529273
v 0.673637 0.716778 -0.673637
v 0.792113 -0.716778 -0.529273
v 0.880149 -0.716778 -0.364570
v 0.934361 -0.716778 -0.185856
v 0.952667 -0.716778 -0.000000
v -0.185856 -0.716778 0.934361
v -0.364570 -0.716778 0.880149
v -0.529274 -0.716778 0.792113
v -0.673637 -0.716778 0.673636
v -0.792113 0.716778 -0.529274
v -0.880149 0.716778 -0.364571
v -0.934361 0.716778 -0.185857
v -0.952666 0.716778 -0.000001
v -0.185855 0.716778 -0.934362
v -0.364568 0.716778 -0.880150
v -0.529272 0.716778 -0.792114
v -0.673636 0.716778 -0.673638
v 0.185856 -0.716778 -0.934361
v 0.364570 -0.716778 -0.880149
v 0.529273 -0.716778 -0.792113
v 0.673637 -0.716778 -0.673637
v 0.792113 0.716778 0.529273
v 0.880149 0.716778 0.364570
v 0.934361 0.716778 0.185856
v 0.952667 0.716778 -0.000000
v 0.185856 0.716778 0.934361
v 0.364570 0.716778 0.880149
v 0.529273 0.716778 0.792113
v 0.673637 0.716778 0.673637
v -0.792114 -0.716778 0.529273
v -0.880149 -0.716778 0.364569
v -0.934361 -0.716778 0.185855
v -0.952666 -0.716778 -0.000001
v -0.529274 0.716778 0.792113
v -0.364570 0.716778 0.880149
v -0.185856 0.716778 0.934361
v -0.000000 0.716778 0.952667
v 0.529273 -0.716778 0.792113
v 0.364570 -0.716778 0.880149
v 0.185856 -0.716778 0.934361
v -0.000000 -0.716778 0.952667
v -0.673636 -0.716778 -0.673638
v -0.792113 -0.716778 -0.529274
v -0.880149 -0.716778 -0.364571
v -0.934361 -0.716778 -0.185857
v 0.000000 -0.716778 -0.952667
v -0.185855 -0.716778 -0.934362
v -0.364568 -0.716778 -0.880150
v -0.529272 -0.716778 -0.792114
v 0.000000 1.398428 -0.812660
v 0.158542 1.398428 -0.797045
v 0.310991 1.398428 -0.750800
v 0.451489 1.398428 -0.675702
v 0.574637 1.398428 -0.574637
v 0.675702 1.398428 -0.451490
v 0.750800 1.398428 -0.310991
v 0.797045 1.398428 -0.158542
v 0.812660 1.398428 -0.000000
v 0.797045 1.398428 0.158542
v 0.750800 1.398428 0.310991
v 0.675702 1.398428 0.451489
v 0.574637 1.398428 0.574637
v 0.451489 1.398428 0.675702
v 0.310991 1.398428 0.750800
v 0.158542 1.398428 0.797045
v -0.000000 1.398428 0.812660
v -0.158542 1.398428 0.797044
v -0.310992 1.398428 0.750799
v -0.451490 1.398428 0.675701
v -0.574637 1.398428 0.574637
v -0.675702 1.398428 0.451489
v -0.750800 1.398428 0.310991
v -0.797045 1.398428 0.158541
v -0.812660 1.398428 -0.000001
v -0.797044 1.398428 -0.158543
v -0.750799 1.398428 -0.310992
v -0.675701 1.398428 -0.451490
v -0.574636 1.398428 -0.574638
v -0.451489 1.398428 -0.675702
v -0.310990 1.398428 -0.750800
v -0.158541 1.398428 -0.797045
v 0.000000 1.355062 -0.812660
v 0.158542 1.355062 -0.797045
v 0.310991 1.355062 -0.750800
v 0.451489 1.355062 -0.675702
v 0.574637 1.355062 -0.574637
v 0.675702 1.355062 -0.451490
v 0.750800 1.355062 -0.310991
v 0.797045 1.355062 -0.158542
v 0.812660 1.355062 -0.000000
v 0.797045 1.355062 0.158542
v 0.750800 1.355062 0.310991
v 0.675702 1.355062 0.451489
v 0.574637 1.355062 0.574637
v 0.451489 1.355062 0.675702
v 0.310991 1.355062 0.750800
v 0.158542 1.355062 0.797045
v -0.000000 1.355062 0.812660
v -0.158542 1.355062 0.797044
v -0.310992 1.355062 0.750799
v -0.451490 1.355062 0.675701
v -0.574637 1.355062 0.574637
v -0.675702 1.355062 0.451489
v -0.750800 1.355062 0.310991
v -0.797045 1.355062 0.158541
v -0.812660 1.355062 -0.000001
v -0.797044 1.355062 -0.158543
v -0.750799 1.355062 -0.310992
v -0.675701 1.355062 -0.451490
v -0.574636 1.355062 -0.574638
v -0.451489 1.355062 -0.675702
v -0.310990 1.355062 -0.750800
v -0.158541 1.355062 -0.797045
v 0.000000 -1.398428 -0.809129
v 0.157853 -1.398428 -0.793582
v 0.309640 -1.398428 -0.747538
v 0.449528 -1.398428 -0.672766
v 0.572141 -1.398428 -0.572141
v 0.672766 -1.398428 -0.449528
v 0.747538 -1.398428 -0.309640
v 0.793582 -1.398428 -0.157853
v 0.809129 -1.398428 -0.000000
v 0.793582 -1.398428 0.157853
v 0.747538 -1.398428 0.309640
v 0.672766 -1.398428 0.449528
v 0.572141 -1.398428 0.572141
v 0.449528 -1.398428 0.672766
v 0.309640 -1.398428 0.747538
v 0.157853 -1.398428 0.793582
v -0.000000 -1.398428 0.809129
v -0.157854 -1.398428 0.793582
v -0.309641 -1.398428 0.747537
v -0.449528 -1.398428 0.672766
v -0.572141 -1.398428 0.572140
v -0.672766 -1.398428 0.449527
v -0.747538 -1.398428 0.309640
v -0.793582 -1.398428 0.157852
v -0.809129 -1.398428 -0.000001
v -0.793582 -1.398428 -0.157854
v -0.747537 -1.398428 -0.309641
v -0.672766 -1.398428 -0.449529
v -0.572140 -1.398428 -0.572141
v -0.449527 -1.398428 -0.672767
v -0.309639 -1.398428 -0.747538
v -0.157852 -1.398428 -0.793582
v 0.000000 -1.334834 -0.809129
v 0.157853 -1.334834 -0.793582
v 0.309640 -1.334834 -0.747538
v 0.449528 -1.334834 -0.672766
v 0.572141 -1.334834 -0.572141
v 0.672766 -1.334834 -0.449528
v 0.747538 -1.334834 -0.309640
v 0.793582 -1.334834 -0.157853
v 0.809129 -1.334834 -0.000000
v 0.793582 -1.334834 0.157853
v 0.747538 -1.334834 0.309640
v 0.672766 -1.334834 0.449528
v 0.572141 -1.334834 0.572141
v 0.449528 -1.334834 0.672766
v 0.309640 -1.334834 0.747538
v 0.157853 -1.334834 0.793582
v -0.000000 -1.334834 0.809129
v -0.157854 -1.334834 0.793582
v -0.309641 -1.334834 0.747537
v -0.449528 -1.334834 0.672766
v -0.572141 -1.334834 0.572140
v -0.672766 -1.334834 0.449527
v -0.747538 -1.334834 0.309640
v -0.793582 -1.334834 0.157852
v -0.809129 -1.334834 -0.000001
v -0.793582 -1.334834 -0.157854
v -0.747537 -1.334834 -0.309641
v -0.672766 -1.334834 -0.449529
v -0.572140 -1.334834 -0.572141
v -0.449527 -1.334834 -0.672767
v -0.309639 -1.334834 -0.747538
v -0.157852 -1.334834 -0.793582
v 0.000000 1.355061 -0.000000
v 0.000000 -1.334834 -0.000000
v -0.940671 0.358389 0.187110
v -0.797463 0.358389 0.532847
v -0.678186 0.358389 0.678185
v -0.886093 0.358389 0.367031
v 0.532847 0.358389 -0.797462
v 0.187111 0.358389 -0.940671
v 0.000000 0.358389 -0.959100
v 0.367032 0.358389 -0.886093
v 0.940671 0.358389 -0.187111
v 0.797462 0.358389 -0.532847
v 0.678186 0.358389 -0.678186
v 0.886093 0.358389 -0.367032
v -0.797462 0.358389 -0.532848
v -0.940671 0.358389 -0.187112
v -0.959100 0.358389 -0.000001
v -0.886092 0.358389 -0.367033
v -0.187110 0.358389 -0.940671
v -0.532846 0.358389 -0.797463
v -0.678185 0.358389 -0.678187
v -0.367030 0.358389 -0.886093
v 0.797462 0.358389 0.532847
v 0.940671 0.358389 0.187111
v 0.959100 0.358389 -0.000000
v 0.886093 0.358389 0.367031
v 0.187111 0.358389 0.940671
v 0.532847 0.358389 0.797462
v 0.678186 0.358389 0.678186
v 0.367031 0.358389 0.886093
v -0.532848 0.358389 0.797462
v -0.187111 0.358389 0.940671
v -0.000000 0.358389 0.959100
v -0.367032 0.358389 0.886092
v 0.797462 -0.358389 -0.532847
v 0.959100 -0.358389 -0.000000
v 0.886093 -0.358389 -0.367032
v 0.940671 -0.358389 -0.187111
v -0.797462 -0.358389 -0.532848
v -0.940671 -0.358389 -0.187112
v -0.886092 -0.358389 -0.367033
v -0.678185 -0.358389 -0.678187
v -0.187111 -0.358389 0.940671
v -0.678186 -0.358389 0.678185
v -0.367032 -0.358389 0.886092
v -0.532848 -0.358389 0.797462
v -0.187110 -0.358389 -0.940671
v -0.532846 -0.358389 -0.797463
v -0.367030 -0.358389 -0.886093
v 0.000000 -0.358389 -0.959100
v 0.187111 -0.358389 -0.940671
v 0.678186 -0.358389 -0.678186
v 0.367032 -0.358389 -0.886093
v 0.532847 -0.358389 -0.797462
v -0.797463 -0.358389 0.532847
v -0.959100 -0.358389 -0.000001
v -0.886093 -0.358389 0.367031
v -0.940671 -0.358389 0.187110
v 0.940671 -0.358389 0.187111
v 0.678186 -0.358389 0.678186
v 0.886093 -0.358389 0.367031
v 0.797462 -0.358389 0.532847
v 0.187111 -0.358389 0.940671
v 0.532847 -0.358389 0.797462
v 0.367031 -0.358389 0.886093
v -0.000000 -0.358389 0.959100
vt 0.650145 0.763533
vt 0.654959 0.763533
vt 0.654982 0.764164
vt 0.650168 0.764163
vt 0.655005 0.764794
vt 0.650191 0.764794
vt 0.655028 0.765425
vt 0.650214 0.765425
vt 0.655051 0.766056
vt 0.650237 0.766056
vt 0.655074 0.766687
vt 0.650260 0.766687
vt 0.655097 0.767318
vt 0.650283 0.767317
vt 0.655120 0.767948
vt 0.650306 0.767948
vt 0.655143 0.768579
vt 0.650329 0.768579
vt 0.655167 0.769210
vt 0.650352 0.769210
vt 0.655190 0.769841
vt 0.650375 0.769841
vt 0.655213 0.770471
vt 0.650398 0.770471
vt 0.655236 0.771102
vt 0.650421 0.771102
vt 0.655259 0.771733
vt 0.650444 0.771733
vt 0.655282 0.772364
vt 0.650468 0.772364
vt 0.655305 0.772995
vt 0.650491 0.772995
vt 0.655328 0.773625
vt 0.650514 0.773625
vt 0.655351 0.774256
vt 0.650537 0.774256
vt 0.649799 0.754071
vt 0.654614 0.754071
vt 0.654637 0.754702
vt 0.649822 0.754702
vt 0.654660 0.755333
vt 0.649846 0.755332
vt 0.654683 0.755964
vt 0.649868 0.755963
vt 0.654706 0.756594
vt 0.649891 0.756594
vt 0.654729 0.757225
vt 0.649915 0.757225
vt 0.654752 0.757856
vt 0.649938 0.757855
vt 0.654775 0.758487
vt 0.649961 0.758486
vt 0.654798 0.759117
vt 0.649984 0.759117
vt 0.654821 0.759748
vt 0.650007 0.759748
vt 0.654844 0.760379
vt 0.650030 0.760379
vt 0.654867 0.761010
vt 0.650053 0.761009
vt 0.654890 0.761641
vt 0.650076 0.761640
vt 0.654913 0.762271
vt 0.650099 0.762271
vt 0.650122 0.762902
vt 0.654936 0.762902
vt 0.662134 0.760394
vt 0.661604 0.760614
vt 0.660755 0.757814
vt 0.661042 0.760726
vt 0.663017 0.755957
vt 0.663336 0.756434
vt 0.660468 0.760726
vt 0.659905 0.760614
vt 0.659375 0.760394
vt 0.658898 0.760076
vt 0.658493 0.759670
vt 0.658174 0.759193
vt 0.657954 0.758663
vt 0.657842 0.758100
vt 0.657842 0.757527
vt 0.657954 0.756964
vt 0.658174 0.756434
vt 0.658493 0.755957
vt 0.658898 0.755551
vt 0.659375 0.755233
vt 0.659905 0.755013
vt 0.660468 0.754901
vt 0.661042 0.754901
vt 0.661604 0.755013
vt 0.662134 0.755233
vt 0.662611 0.755551
vt 0.663555 0.756964
vt 0.663667 0.757527
vt 0.663667 0.758100
vt 0.663555 0.758663
vt 0.663336 0.759193
vt 0.663017 0.759670
vt 0.662611 0.760076
vt 0.648544 0.742437
vt 0.644400 0.742406
vt 0.644395 0.741854
vt 0.648542 0.741886
vt 0.652685 0.742484
vt 0.652684 0.741931
vt 0.656851 0.742540
vt 0.656851 0.741982
vt 0.661064 0.742606
vt 0.661067 0.742044
vt 0.665302 0.742704
vt 0.665309 0.742140
vt 0.669542 0.742826
vt 0.669552 0.742262
vt 0.673774 0.742968
vt 0.673786 0.742406
vt 0.677994 0.743129
vt 0.678009 0.742568
vt 0.682201 0.743309
vt 0.682218 0.742750
vt 0.686394 0.743507
vt 0.686414 0.742949
vt 0.690573 0.743723
vt 0.690595 0.743167
vt 0.694740 0.743958
vt 0.694764 0.743404
vt 0.698897 0.744211
vt 0.698923 0.743657
vt 0.703065 0.744470
vt 0.703087 0.743915
vt 0.707369 0.744681
vt 0.707378 0.744106
vt 0.576385 0.744488
vt 0.571862 0.744666
vt 0.571845 0.744055
vt 0.576349 0.743903
vt 0.580749 0.744231
vt 0.580707 0.743654
vt 0.585083 0.743974
vt 0.585042 0.743398
vt 0.589403 0.743733
vt 0.589364 0.743159
vt 0.593710 0.743512
vt 0.593674 0.742940
vt 0.598004 0.743312
vt 0.597971 0.742741
vt 0.602286 0.743131
vt 0.602255 0.742563
vt 0.606555 0.742971
vt 0.606527 0.742404
vt 0.610811 0.742831
vt 0.610785 0.742266
vt 0.615054 0.742710
vt 0.615031 0.742146
vt 0.619284 0.742609
vt 0.619264 0.742047
vt 0.623502 0.742527
vt 0.623485 0.741967
vt 0.627707 0.742465
vt 0.627692 0.741906
vt 0.631899 0.742422
vt 0.631887 0.741865
vt 0.636079 0.742398
vt 0.636069 0.741842
vt 0.593872 0.746683
vt 0.598152 0.746474
vt 0.598188 0.747330
vt 0.593912 0.747542
vt 0.636086 0.744924
vt 0.640241 0.744912
vt 0.640249 0.745461
vt 0.636096 0.745475
vt 0.640246 0.742393
vt 0.640238 0.741839
vt 0.678057 0.741475
vt 0.682270 0.741660
vt 0.631918 0.744956
vt 0.627737 0.745007
vt 0.623544 0.745077
vt 0.619338 0.745166
vt 0.615120 0.745275
vt 0.610888 0.745404
vt 0.606644 0.745552
vt 0.602388 0.745720
vt 0.598118 0.745908
vt 0.593836 0.746116
vt 0.589541 0.746344
vt 0.585233 0.746592
vt 0.580905 0.746854
vt 0.576539 0.747128
vt 0.572074 0.747487
vt 0.707134 0.747378
vt 0.702893 0.746995
vt 0.698738 0.746720
vt 0.694591 0.746475
vt 0.690435 0.746249
vt 0.686267 0.746041
vt 0.682085 0.745851
vt 0.677890 0.745680
vt 0.673681 0.745527
vt 0.669461 0.745392
vt 0.665234 0.745270
vt 0.661004 0.745153
vt 0.656796 0.745079
vt 0.652646 0.745006
vt 0.648521 0.744946
vt 0.644385 0.744918
vt 0.631931 0.745509
vt 0.627753 0.745561
vt 0.623562 0.745633
vt 0.619359 0.745724
vt 0.615143 0.745835
vt 0.610914 0.745965
vt 0.606673 0.746114
vt 0.602419 0.746284
vt 0.589580 0.746913
vt 0.585274 0.747163
vt 0.580949 0.747429
vt 0.576588 0.747704
vt 0.572139 0.748076
vt 0.707074 0.747950
vt 0.702857 0.747549
vt 0.698711 0.747270
vt 0.694567 0.747025
vt 0.690414 0.746800
vt 0.686248 0.746594
vt 0.682068 0.746406
vt 0.677875 0.746237
vt 0.673669 0.746086
vt 0.669451 0.745951
vt 0.665226 0.745830
vt 0.660999 0.745712
vt 0.656792 0.745633
vt 0.652644 0.745555
vt 0.648523 0.745493
vt 0.644390 0.745466
vt 0.631935 0.746344
vt 0.632006 0.749887
vt 0.627848 0.749953
vt 0.627761 0.746399
vt 0.636069 0.740759
vt 0.640243 0.740759
vt 0.686471 0.741863
vt 0.690657 0.742084
vt 0.694831 0.742324
vt 0.698991 0.742580
vt 0.703142 0.742832
vt 0.707317 0.742986
vt 0.571926 0.742901
vt 0.576301 0.742779
vt 0.580644 0.742529
vt 0.584981 0.742276
vt 0.589308 0.742040
vt 0.593623 0.741824
vt 0.597925 0.741628
vt 0.602215 0.741453
vt 0.606492 0.741298
vt 0.610755 0.741162
vt 0.615006 0.741047
vt 0.619244 0.740950
vt 0.623470 0.740874
vt 0.627682 0.740816
vt 0.631882 0.740778
vt 0.644404 0.740777
vt 0.648554 0.740811
vt 0.652698 0.740853
vt 0.656867 0.740895
vt 0.661089 0.740947
vt 0.665339 0.741039
vt 0.669589 0.741163
vt 0.673829 0.741309
vt 0.636097 0.746308
vt 0.636151 0.749840
vt 0.602450 0.747137
vt 0.606701 0.746965
vt 0.610938 0.746813
vt 0.615163 0.746680
vt 0.619375 0.746567
vt 0.623574 0.746474
vt 0.644383 0.746295
vt 0.640246 0.746292
vt 0.648512 0.746319
vt 0.652630 0.746358
vt 0.656775 0.746472
vt 0.660978 0.746579
vt 0.665199 0.746678
vt 0.669422 0.746797
vt 0.673637 0.746929
vt 0.677839 0.747078
vt 0.682029 0.747245
vt 0.686204 0.747430
vt 0.690366 0.747633
vt 0.694516 0.747855
vt 0.698655 0.748098
vt 0.702789 0.748372
vt 0.706910 0.748762
vt 0.576651 0.748591
vt 0.572305 0.748974
vt 0.581001 0.748298
vt 0.585322 0.748027
vt 0.589624 0.747775
vt 0.640284 0.749813
vt 0.644402 0.749805
vt 0.648505 0.749820
vt 0.652588 0.749872
vt 0.656682 0.749994
vt 0.660869 0.750162
vt 0.665125 0.750286
vt 0.669348 0.750392
vt 0.673550 0.750511
vt 0.677738 0.750647
vt 0.681911 0.750802
vt 0.686071 0.750975
vt 0.690217 0.751167
vt 0.694349 0.751377
vt 0.698464 0.751609
vt 0.702557 0.751874
vt 0.706623 0.752201
vt 0.576970 0.752315
vt 0.572609 0.752687
vt 0.581286 0.751981
vt 0.585582 0.751689
vt 0.589864 0.751424
vt 0.594135 0.751180
vt 0.598393 0.750957
vt 0.602638 0.750755
vt 0.606871 0.750572
vt 0.611092 0.750409
vt 0.615300 0.750266
vt 0.619495 0.750142
vt 0.623678 0.750038
vt 0.649498 0.730492
vt 0.645295 0.730459
vt 0.645290 0.729899
vt 0.649495 0.729934
vt 0.653689 0.730544
vt 0.653689 0.729988
vt 0.657868 0.730616
vt 0.657870 0.730060
vt 0.662034 0.730706
vt 0.662039 0.730152
vt 0.666188 0.730815
vt 0.666196 0.730263
vt 0.670329 0.730942
vt 0.670339 0.730392
vt 0.674458 0.731089
vt 0.674470 0.730540
vt 0.678573 0.731253
vt 0.678588 0.730706
vt 0.682675 0.731436
vt 0.682693 0.730891
vt 0.686764 0.731638
vt 0.686784 0.731094
vt 0.690839 0.731857
vt 0.690861 0.731316
vt 0.694900 0.732095
vt 0.694925 0.731555
vt 0.698953 0.732350
vt 0.698979 0.731811
vt 0.703014 0.732612
vt 0.703036 0.732072
vt 0.707203 0.732833
vt 0.707218 0.732274
vt 0.576434 0.732481
vt 0.571867 0.732659
vt 0.571845 0.732040
vt 0.576398 0.731888
vt 0.580847 0.732230
vt 0.580805 0.731646
vt 0.585232 0.731979
vt 0.585191 0.731397
vt 0.589601 0.731744
vt 0.589563 0.731164
vt 0.593958 0.731529
vt 0.593923 0.730950
vt 0.598303 0.731333
vt 0.598270 0.730757
vt 0.602635 0.731158
vt 0.602605 0.730583
vt 0.606955 0.731002
vt 0.606927 0.730428
vt 0.611262 0.730866
vt 0.611237 0.730294
vt 0.615558 0.730749
vt 0.615535 0.730178
vt 0.619841 0.730651
vt 0.619821 0.730082
vt 0.624112 0.730572
vt 0.624095 0.730005
vt 0.628372 0.730512
vt 0.628357 0.729946
vt 0.632620 0.730471
vt 0.632607 0.729907
vt 0.636856 0.730448
vt 0.636846 0.729886
vt 0.594120 0.734734
vt 0.598450 0.734530
vt 0.598485 0.735397
vt 0.594159 0.735604
vt 0.636865 0.733008
vt 0.641079 0.732997
vt 0.641087 0.733554
vt 0.636876 0.733566
vt 0.641081 0.730444
vt 0.641074 0.729883
vt 0.678637 0.729639
vt 0.682746 0.729827
vt 0.632640 0.733037
vt 0.628404 0.733085
vt 0.624156 0.733152
vt 0.619896 0.733238
vt 0.615624 0.733343
vt 0.611340 0.733468
vt 0.607044 0.733611
vt 0.602736 0.733775
vt 0.598416 0.733958
vt 0.594084 0.734160
vt 0.589739 0.734383
vt 0.585380 0.734625
vt 0.581003 0.734881
vt 0.576587 0.735149
vt 0.572076 0.735498
vt 0.706970 0.735449
vt 0.702844 0.735071
vt 0.698795 0.734795
vt 0.694753 0.734547
vt 0.690702 0.734318
vt 0.686638 0.734106
vt 0.682560 0.733913
vt 0.678469 0.733738
vt 0.674365 0.733582
vt 0.670248 0.733443
vt 0.666118 0.733324
vt 0.661975 0.733222
vt 0.657820 0.733140
vt 0.653652 0.733076
vt 0.649473 0.733030
vt 0.645282 0.733004
vt 0.632653 0.733597
vt 0.628419 0.733647
vt 0.624173 0.733715
vt 0.619916 0.733803
vt 0.615647 0.733909
vt 0.611366 0.734035
vt 0.607072 0.734180
vt 0.602767 0.734345
vt 0.589777 0.734959
vt 0.585421 0.735202
vt 0.581046 0.735462
vt 0.576636 0.735731
vt 0.572136 0.736092
vt 0.706915 0.736006
vt 0.702808 0.735612
vt 0.698768 0.735330
vt 0.694728 0.735083
vt 0.690680 0.734855
vt 0.686618 0.734646
vt 0.682543 0.734454
vt 0.678455 0.734281
vt 0.674353 0.734126
vt 0.670238 0.733990
vt 0.666110 0.733871
vt 0.661970 0.733772
vt 0.657818 0.733691
vt 0.653653 0.733628
vt 0.649476 0.733585
vt 0.645287 0.733560
vt 0.632657 0.734445
vt 0.632725 0.738036
vt 0.628511 0.738098
vt 0.628427 0.734497
vt 0.636846 0.728787
vt 0.641078 0.728787
vt 0.686842 0.730034
vt 0.690924 0.730259
vt 0.694992 0.730502
vt 0.699048 0.730760
vt 0.703093 0.731016
vt 0.707163 0.731180
vt 0.571928 0.730873
vt 0.576351 0.730752
vt 0.580744 0.730507
vt 0.585131 0.730260
vt 0.589508 0.730030
vt 0.593873 0.729820
vt 0.598225 0.729630
vt 0.602565 0.729459
vt 0.606892 0.729308
vt 0.611208 0.729176
vt 0.615511 0.729064
vt 0.619801 0.728971
vt 0.624080 0.728897
vt 0.628347 0.728841
vt 0.632602 0.728805
vt 0.645300 0.728805
vt 0.649510 0.728843
vt 0.653708 0.728900
vt 0.657895 0.728976
vt 0.662068 0.729072
vt 0.666230 0.729186
vt 0.670378 0.729318
vt 0.674514 0.729469
vt 0.636876 0.734412
vt 0.636928 0.737993
vt 0.602798 0.735210
vt 0.607099 0.735042
vt 0.611389 0.734895
vt 0.615666 0.734767
vt 0.619931 0.734658
vt 0.624185 0.734568
vt 0.645280 0.734401
vt 0.641084 0.734397
vt 0.649465 0.734423
vt 0.653638 0.734464
vt 0.657799 0.734524
vt 0.661948 0.734603
vt 0.666085 0.734700
vt 0.670209 0.734816
vt 0.674320 0.734950
vt 0.678418 0.735102
vt 0.682503 0.735272
vt 0.686574 0.735461
vt 0.690632 0.735668
vt 0.694677 0.735893
vt 0.698712 0.736139
vt 0.702740 0.736413
vt 0.706755 0.736798
vt 0.576697 0.736629
vt 0.572300 0.737003
vt 0.581097 0.736342
vt 0.585468 0.736077
vt 0.589821 0.735831
vt 0.641120 0.737969
vt 0.645301 0.737963
vt 0.649469 0.737976
vt 0.653627 0.738007
vt 0.657772 0.738057
vt 0.661905 0.738125
vt 0.666026 0.738212
vt 0.670134 0.738317
vt 0.674230 0.738440
vt 0.678312 0.738581
vt 0.682381 0.738741
vt 0.686437 0.738918
vt 0.690480 0.739113
vt 0.694508 0.739326
vt 0.698519 0.739560
vt 0.702509 0.739826
vt 0.706472 0.740149
vt 0.577010 0.740395
vt 0.572597 0.740759
vt 0.581377 0.740068
vt 0.585723 0.739782
vt 0.590056 0.739523
vt 0.594377 0.739285
vt 0.598685 0.739068
vt 0.602982 0.738870
vt 0.607266 0.738693
vt 0.611539 0.738535
vt 0.615799 0.738397
vt 0.620048 0.738278
vt 0.624286 0.738179
vt 0.186160 0.816806
vt 0.165898 0.807141
vt 0.166806 0.794517
vt 0.186777 0.802492
vt 0.167529 0.781930
vt 0.187274 0.788542
vt 0.168120 0.769383
vt 0.187673 0.774885
vt 0.168610 0.756873
vt 0.187996 0.761467
vt 0.169018 0.744402
vt 0.188255 0.748245
vt 0.169358 0.731969
vt 0.188465 0.735188
vt 0.169641 0.719574
vt 0.188632 0.722266
vt 0.169875 0.707214
vt 0.188766 0.709458
vt 0.170067 0.694888
vt 0.188871 0.696745
vt 0.170221 0.682591
vt 0.188951 0.684109
vt 0.170341 0.670322
vt 0.189009 0.671535
vt 0.170431 0.658076
vt 0.189048 0.659012
vt 0.170492 0.645851
vt 0.189068 0.646526
vt 0.170527 0.633644
vt 0.189072 0.634067
vt 0.170534 0.621451
vt 0.189058 0.621624
vt 0.170514 0.609269
vt 0.189027 0.609186
vt 0.170466 0.597094
vt 0.188978 0.596744
vt 0.170388 0.584924
vt 0.188909 0.584286
vt 0.170278 0.572755
vt 0.188819 0.571802
vt 0.170132 0.560582
vt 0.188705 0.559278
vt 0.169945 0.548401
vt 0.188563 0.546701
vt 0.169713 0.536209
vt 0.188389 0.534055
vt 0.169429 0.524002
vt 0.188179 0.521323
vt 0.169084 0.511774
vt 0.187926 0.508484
vt 0.168669 0.499520
vt 0.187623 0.495514
vt 0.168172 0.487237
vt 0.187258 0.482385
vt 0.167577 0.474918
vt 0.186820 0.469061
vt 0.166864 0.462558
vt 0.186294 0.455500
vt 0.166006 0.450144
vt 0.185660 0.441650
vt 0.164960 0.437643
vt 0.184891 0.427444
vt 0.164694 0.819810
vt 0.163396 0.818625
vt 0.164547 0.806381
vt 0.185384 0.831431
vt 0.163609 0.425105
vt 0.183955 0.412797
vt 0.245154 0.682563
vt 0.245002 0.670401
vt 0.246434 0.670335
vt 0.246588 0.682466
vt 0.219505 0.818819
vt 0.208346 0.820020
vt 0.208272 0.805151
vt 0.219071 0.804125
vt 0.208202 0.790726
vt 0.218701 0.789854
vt 0.208136 0.776674
vt 0.218387 0.775935
vt 0.208075 0.762931
vt 0.218121 0.762307
vt 0.208018 0.749445
vt 0.217895 0.748921
vt 0.207966 0.736171
vt 0.217703 0.735735
vt 0.207917 0.723073
vt 0.217541 0.722712
vt 0.207873 0.710119
vt 0.217404 0.709823
vt 0.207832 0.697281
vt 0.217289 0.697043
vt 0.207795 0.684539
vt 0.217192 0.684350
vt 0.207760 0.671870
vt 0.217112 0.671726
vt 0.207728 0.659259
vt 0.217046 0.659154
vt 0.207699 0.646690
vt 0.216993 0.646618
vt 0.207670 0.634148
vt 0.216951 0.634106
vt 0.207642 0.621619
vt 0.216919 0.621604
vt 0.207615 0.609091
vt 0.216897 0.609100
vt 0.207588 0.596550
vt 0.216885 0.596581
vt 0.207560 0.583983
vt 0.216882 0.584036
vt 0.207531 0.571375
vt 0.216888 0.571449
vt 0.207500 0.558712
vt 0.216905 0.558807
vt 0.207467 0.545974
vt 0.216932 0.546094
vt 0.207432 0.533142
vt 0.216972 0.533290
vt 0.207393 0.520195
vt 0.217027 0.520375
vt 0.207351 0.507104
vt 0.217099 0.507325
vt 0.207306 0.493839
vt 0.217192 0.494109
vt 0.207257 0.480362
vt 0.217312 0.480694
vt 0.207204 0.466629
vt 0.217464 0.467037
vt 0.207148 0.452587
vt 0.217655 0.453089
vt 0.207088 0.438175
vt 0.217894 0.438792
vt 0.207024 0.423317
vt 0.218190 0.424077
vt 0.220009 0.834015
vt 0.208423 0.835421
vt 0.206959 0.407929
vt 0.218551 0.408902
vt 0.197618 0.507506
vt 0.197434 0.494324
vt 0.197217 0.480945
vt 0.196960 0.467324
vt 0.198124 0.749211
vt 0.198211 0.735983
vt 0.198364 0.621633
vt 0.198334 0.609128
vt 0.244728 0.621758
vt 0.226221 0.621608
vt 0.226207 0.609173
vt 0.244732 0.609581
vt 0.249371 0.792962
vt 0.229713 0.801571
vt 0.229067 0.787716
vt 0.248502 0.780547
vt 0.197170 0.819311
vt 0.197456 0.804582
vt 0.244751 0.633926
vt 0.226254 0.634038
vt 0.198385 0.684460
vt 0.198399 0.671810
vt 0.197686 0.790270
vt 0.198104 0.558879
vt 0.198013 0.546188
vt 0.198403 0.659217
vt 0.195873 0.424465
vt 0.195381 0.409279
vt 0.197903 0.533410
vt 0.245037 0.560708
vt 0.226332 0.559173
vt 0.226415 0.546550
vt 0.245192 0.548433
vt 0.245912 0.511420
vt 0.226835 0.508150
vt 0.227051 0.495108
vt 0.246258 0.499012
vt 0.198277 0.722921
vt 0.198294 0.596613
vt 0.198326 0.709996
vt 0.196655 0.453413
vt 0.198243 0.584076
vt 0.196296 0.439150
vt 0.249422 0.436390
vt 0.229189 0.426632
vt 0.229974 0.412024
vt 0.250637 0.423735
vt 0.197868 0.776308
vt 0.246661 0.743589
vt 0.227709 0.747690
vt 0.227397 0.734718
vt 0.246236 0.731340
vt 0.198399 0.646665
vt 0.198012 0.762639
vt 0.197773 0.520525
vt 0.198386 0.634141
vt 0.226592 0.683928
vt 0.226472 0.671407
vt 0.228531 0.774150
vt 0.247777 0.768187
vt 0.245624 0.523792
vt 0.226662 0.521056
vt 0.247771 0.461558
vt 0.228056 0.454861
vt 0.228561 0.440928
vt 0.248505 0.448993
vt 0.198362 0.697183
vt 0.198181 0.571503
vt 0.196820 0.834501
vt 0.226378 0.658927
vt 0.244885 0.658244
vt 0.246673 0.486566
vt 0.227318 0.481903
vt 0.227648 0.468501
vt 0.247171 0.474081
vt 0.247170 0.755869
vt 0.228083 0.760822
vt 0.244765 0.597390
vt 0.226210 0.596723
vt 0.226231 0.584247
vt 0.244825 0.585184
vt 0.251794 0.818012
vt 0.231441 0.830438
vt 0.230493 0.815784
vt 0.250429 0.805465
vt 0.245588 0.706917
vt 0.226919 0.709147
vt 0.226739 0.696502
vt 0.245348 0.694734
vt 0.226523 0.533850
vt 0.245386 0.536129
vt 0.226271 0.571735
vt 0.244915 0.572958
vt 0.226306 0.646474
vt 0.244803 0.646087
vt 0.227136 0.721879
vt 0.245882 0.719117
vt 0.169095 0.657987
vt 0.169003 0.670211
vt 0.167718 0.670109
vt 0.167813 0.657905
vt 0.163593 0.438481
vt 0.162273 0.426420
vt 0.164654 0.450796
vt 0.165517 0.463089
vt 0.166233 0.475355
vt 0.166831 0.487596
vt 0.167332 0.499815
vt 0.167749 0.512013
vt 0.168096 0.524194
vt 0.168382 0.536361
vt 0.165437 0.793904
vt 0.168615 0.548518
vt 0.168802 0.560667
vt 0.168949 0.572813
vt 0.169059 0.584958
vt 0.169137 0.597105
vt 0.169184 0.609259
vt 0.169203 0.621421
vt 0.169194 0.633594
vt 0.169158 0.645782
vt 0.168879 0.682457
vt 0.168722 0.694728
vt 0.168528 0.707026
vt 0.168291 0.719353
vt 0.168004 0.731710
vt 0.167660 0.744098
vt 0.167248 0.756516
vt 0.166755 0.768961
vt 0.166161 0.781426
vt 0.167236 0.706849
vt 0.167433 0.694579
vt 0.166359 0.743810
vt 0.166706 0.731465
vt 0.164856 0.780945
vt 0.165450 0.768559
vt 0.162099 0.817819
vt 0.163234 0.805641
vt 0.164232 0.463606
vt 0.163368 0.451429
vt 0.166052 0.500104
vt 0.165550 0.487948
vt 0.167106 0.536513
vt 0.166819 0.524386
vt 0.167674 0.572874
vt 0.167528 0.560755
vt 0.167908 0.609254
vt 0.167862 0.597121
vt 0.167878 0.645720
vt 0.167916 0.633551
vt 0.167593 0.682333
vt 0.166996 0.719144
vt 0.165945 0.756176
vt 0.164133 0.793317
vt 0.162317 0.439265
vt 0.161032 0.427292
vt 0.164950 0.475781
vt 0.166471 0.512250
vt 0.167340 0.548636
vt 0.167785 0.584995
vt 0.167926 0.621397
vt 0.246203 0.597465
vt 0.246265 0.585281
vt 0.248154 0.585408
vt 0.248089 0.597563
vt 0.246783 0.694603
vt 0.247024 0.706747
vt 0.247319 0.718903
vt 0.247676 0.731074
vt 0.248104 0.743263
vt 0.248616 0.755473
vt 0.249227 0.767707
vt 0.249956 0.779965
vt 0.250831 0.792250
vt 0.251903 0.804552
vt 0.253234 0.816584
vt 0.252034 0.425021
vt 0.250877 0.437218
vt 0.249978 0.449663
vt 0.249244 0.462111
vt 0.248640 0.474545
vt 0.248139 0.486958
vt 0.247720 0.499346
vt 0.247371 0.511705
vt 0.247079 0.524034
vt 0.246838 0.536335
vt 0.246641 0.548608
vt 0.246482 0.560855
vt 0.246358 0.573078
vt 0.246168 0.609634
vt 0.246162 0.621789
vt 0.246184 0.633935
vt 0.246236 0.646072
vt 0.246318 0.658205
vt 0.248044 0.621829
vt 0.248065 0.633945
vt 0.248197 0.658151
vt 0.248313 0.670245
vt 0.248662 0.694428
vt 0.248904 0.706521
vt 0.249560 0.730722
vt 0.249990 0.742832
vt 0.251117 0.767072
vt 0.251848 0.779196
vt 0.253781 0.803400
vt 0.255055 0.815297
vt 0.251895 0.450549
vt 0.251162 0.462839
vt 0.250055 0.487475
vt 0.249633 0.499786
vt 0.248985 0.524355
vt 0.248740 0.536608
vt 0.248376 0.561048
vt 0.248249 0.573237
vt 0.248052 0.609702
vt 0.248115 0.646052
vt 0.248466 0.682337
vt 0.249201 0.718619
vt 0.250504 0.754949
vt 0.252723 0.791313
vt 0.253934 0.426203
vt 0.252804 0.438320
vt 0.250558 0.475155
vt 0.249280 0.512080
vt 0.248539 0.548838
vt 0.583458 0.787735
vt 0.580396 0.785688
vt 0.592315 0.771164
vt 0.575745 0.780021
vt 0.574335 0.776618
vt 0.573617 0.769322
vt 0.574335 0.765710
vt 0.577791 0.759244
vt 0.580396 0.756640
vt 0.586861 0.753184
vt 0.590474 0.752465
vt 0.597770 0.753184
vt 0.601173 0.754593
vt 0.606840 0.759244
vt 0.608886 0.762307
vt 0.611014 0.769322
vt 0.611014 0.773006
vt 0.608886 0.780021
vt 0.606840 0.783084
vt 0.601173 0.787735
vt 0.597770 0.789144
vt 0.590474 0.789863
vt 0.586861 0.789144
vt 0.577791 0.783084
vt 0.573617 0.773006
vt 0.575745 0.762307
vt 0.583458 0.754593
vt 0.594157 0.752465
vt 0.604235 0.756640
vt 0.610296 0.765710
vt 0.610296 0.776618
vt 0.604235 0.785688
vt 0.594157 0.789863
vt 0.648641 0.776070
vt 0.647238 0.779459
vt 0.630739 0.770640
vt 0.648641 0.765209
vt 0.649357 0.768806
vt 0.642607 0.756179
vt 0.645200 0.758772
vt 0.632573 0.752022
vt 0.636170 0.752738
vt 0.621920 0.754141
vt 0.625308 0.752738
vt 0.614240 0.761821
vt 0.616278 0.758772
vt 0.612121 0.772474
vt 0.612121 0.768806
vt 0.616278 0.782508
vt 0.614240 0.779459
vt 0.625308 0.788542
vt 0.621920 0.787139
vt 0.636170 0.788542
vt 0.632573 0.789257
vt 0.645200 0.782508
vt 0.642607 0.785101
vt 0.649357 0.772474
vt 0.647238 0.761821
vt 0.639558 0.754141
vt 0.628905 0.752022
vt 0.618871 0.756179
vt 0.612837 0.765209
vt 0.612837 0.776070
vt 0.618871 0.785101
vt 0.628905 0.789257
vt 0.639558 0.787139
usemtl Material
s 1
f 1/1 2/2 4/3 3/4
f 3/4 4/3 6/5 5/6
f 5/6 6/5 8/7 7/8
f 7/8 8/7 10/9 9/10
f 9/10 10/9 12/11 11/12
f 11/12 12/11 14/13 13/14
f 13/14 14/13 16/15 15/16
f 15/16 16/15 18/17 17/18
f 17/18 18/17 20/19 19/20
f 19/20 20/19 22/21 21/22
f 21/22 22/21 24/23 23/24
f 23/24 24/23 26/25 25/26
f 25/26 26/25 28/27 27/28
f 27/28 28/27 30/29 29/30
f 29/30 30/29 32/31 31/32
f 31/32 32/31 34/33 33/34
f 33/34 34/33 36/35 35/36
f 35/37 36/38 38/39 37/40
f 37/40 38/39 40/41 39/42
f 39/42 40/41 42/43 41/44
f 41/44 42/43 44/45 43/46
f 43/46 44/45 46/47 45/48
f 45/48 46/47 48/49 47/50
f 47/50 48/49 50/51 49/52
f 49/52 50/51 52/53 51/54
f 51/54 52/53 54/55 53/56
f 53/56 54/55 56/57 55/58
f 55/58 56/57 58/59 57/60
f 57/60 58/59 60/61 59/62
f 59/62 60/61 62/63 61/64
f 63/65 64/66 2/2 1/1
f 61/64 62/63 64/66 63/65
f 50/67 48/68 65/69
f 48/68 46/70 65/69
f 4/71 2/72 65/69
f 46/70 44/73 65/69
f 44/73 42/74 65/69
f 42/74 40/75 65/69
f 40/75 38/76 65/69
f 38/76 36/77 65/69
f 36/77 34/78 65/69
f 34/78 32/79 65/69
f 32/79 30/80 65/69
f 30/80 28/81 65/69
f 28/81 26/82 65/69
f 26/82 24/83 65/69
f 24/83 22/84 65/69
f 22/84 20/85 65/69
f 20/85 18/86 65/69
f 18/86 16/87 65/69
f 16/87 14/88 65/69
f 14/88 12/89 65/69
f 12/89 10/90 65/69
f 10/90 8/91 65/69
f 8/91 6/92 65/69
f 6/92 4/71 65/69
f 2/72 64/93 65/69
f 64/93 62/94 65/69
f 62/94 60/95 65/69
f 60/95 58/96 65/69
f 58/96 56/97 65/69
f 56/97 54/98 65/69
f 54/98 52/99 65/69
f 52/99 50/67 65/69
f 190/100 192/101 128/102 126/103
f 188/104 190/100 126/103 124/105
f 186/106 188/104 124/105 122/107
f 184/108 186/106 122/107 120/109
f 182/110 184/108 120/109 118/111
f 180/112 182/110 118/111 116/113
f 178/114 180/112 116/113 114/115
f 176/116 178/114 114/115 112/117
f 174/118 176/116 112/117 110/119
f 172/120 174/118 110/119 108/121
f 170/122 172/120 108/121 106/123
f 168/124 170/122 106/123 104/125
f 166/126 168/124 104/125 102/127
f 164/128 166/126 102/127 100/129
f 162/130 164/128 100/129 98/131
f 160/132 162/133 98/134 96/135
f 158/136 160/132 96/135 94/137
f 156/138 158/136 94/137 92/139
f 154/140 156/138 92/139 90/141
f 152/142 154/140 90/141 88/143
f 150/144 152/142 88/143 86/145
f 148/146 150/144 86/145 84/147
f 146/148 148/146 84/147 82/149
f 144/150 146/148 82/149 80/151
f 142/152 144/150 80/151 78/153
f 140/154 142/152 78/153 76/155
f 138/156 140/154 76/155 74/157
f 136/158 138/156 74/157 72/159
f 134/160 136/158 72/159 70/161
f 132/162 134/160 70/161 68/163
f 89/164 87/165 236/166 237/167
f 133/168 131/169 67/170 69/171
f 130/172 132/162 68/163 66/173
f 110/119 112/117 217/174 216/175
f 130/172 131/169 133/168 132/162
f 132/162 133/168 135/176 134/160
f 134/160 135/176 137/177 136/158
f 136/158 137/177 139/178 138/156
f 138/156 139/178 141/179 140/154
f 140/154 141/179 143/180 142/152
f 142/152 143/180 145/181 144/150
f 144/150 145/181 147/182 146/148
f 146/148 147/182 149/183 148/146
f 148/146 149/183 151/184 150/144
f 150/144 151/184 153/185 152/142
f 152/142 153/185 155/186 154/140
f 154/140 155/186 157/187 156/138
f 156/138 157/187 159/188 158/136
f 158/136 159/188 161/189 160/132
f 160/132 161/189 163/190 162/133
f 162/130 163/191 165/192 164/128
f 164/128 165/192 167/193 166/126
f 166/126 167/193 169/194 168/124
f 168/124 169/194 171/195 170/122
f 170/122 171/195 173/196 172/120
f 172/120 173/196 175/197 174/118
f 174/118 175/197 177/198 176/116
f 176/116 177/198 179/199 178/114
f 178/114 179/199 181/200 180/112
f 180/112 181/200 183/201 182/110
f 182/110 183/201 185/202 184/108
f 184/108 185/202 187/203 186/106
f 186/106 187/203 189/204 188/104
f 188/104 189/204 191/205 190/100
f 192/101 193/206 131/169 130/172
f 190/100 191/205 193/206 192/101
f 192/101 130/172 66/173 128/102
f 135/176 133/168 69/171 71/207
f 137/177 135/176 71/207 73/208
f 139/178 137/177 73/208 75/209
f 141/179 139/178 75/209 77/210
f 143/180 141/179 77/210 79/211
f 145/181 143/180 79/211 81/212
f 147/182 145/181 81/212 83/213
f 149/183 147/182 83/213 85/214
f 151/184 149/183 85/214 87/165
f 153/185 151/184 87/165 89/164
f 155/186 153/185 89/164 91/215
f 157/187 155/186 91/215 93/216
f 159/188 157/187 93/216 95/217
f 161/189 159/188 95/217 97/218
f 163/190 161/189 97/218 99/219
f 165/192 163/191 99/220 101/221
f 167/193 165/192 101/221 103/222
f 169/194 167/193 103/222 105/223
f 171/195 169/194 105/223 107/224
f 173/196 171/195 107/224 109/225
f 175/197 173/196 109/225 111/226
f 177/198 175/197 111/226 113/227
f 179/199 177/198 113/227 115/228
f 181/200 179/199 115/228 117/229
f 183/201 181/200 117/229 119/230
f 185/202 183/201 119/230 121/231
f 187/203 185/202 121/231 123/232
f 189/204 187/203 123/232 125/233
f 191/205 189/204 125/233 127/234
f 193/206 191/205 127/234 129/235
f 131/169 193/206 129/235 67/170
f 228/236 196/237 197/238 229/239
f 66/173 68/163 195/240 194/241
f 108/121 110/119 216/175 215/242
f 106/123 108/121 215/242 214/243
f 104/125 106/123 214/243 213/244
f 102/127 104/125 213/244 212/245
f 100/129 102/127 212/245 211/246
f 98/131 100/129 211/246 210/247
f 96/135 98/134 210/248 209/249
f 94/137 96/135 209/249 208/250
f 92/139 94/137 208/250 207/251
f 90/141 92/139 207/251 206/252
f 88/143 90/141 206/252 205/253
f 86/145 88/143 205/253 204/254
f 84/147 86/145 204/254 203/255
f 82/149 84/147 203/255 202/256
f 80/151 82/149 202/256 201/257
f 78/153 80/151 201/257 200/258
f 76/155 78/153 200/258 199/259
f 74/157 76/155 199/259 198/260
f 72/159 74/157 198/260 197/261
f 70/161 72/159 197/261 196/262
f 68/163 70/161 196/262 195/240
f 128/102 66/173 194/241 225/263
f 126/103 128/102 225/263 224/264
f 124/105 126/103 224/264 223/265
f 122/107 124/105 223/265 222/266
f 120/109 122/107 222/266 221/267
f 118/111 120/109 221/267 220/268
f 116/113 118/111 220/268 219/269
f 114/115 116/113 219/269 218/270
f 112/117 114/115 218/270 217/174
f 227/271 195/272 196/237 228/236
f 87/165 85/214 235/273 236/166
f 85/214 83/213 234/274 235/273
f 83/213 81/212 233/275 234/274
f 81/212 79/211 232/276 233/275
f 79/211 77/210 231/277 232/276
f 77/210 75/209 230/278 231/277
f 75/209 73/208 229/239 230/278
f 73/208 71/207 228/236 229/239
f 71/207 69/171 227/271 228/236
f 67/170 129/235 257/279 226/280
f 129/235 127/234 256/281 257/279
f 127/234 125/233 255/282 256/281
f 125/233 123/232 254/283 255/282
f 123/232 121/231 253/284 254/283
f 121/231 119/230 252/285 253/284
f 119/230 117/229 251/286 252/285
f 117/229 115/228 250/287 251/286
f 115/228 113/227 249/288 250/287
f 113/227 111/226 248/289 249/288
f 69/171 67/170 226/280 227/271
f 111/226 109/225 247/290 248/289
f 109/225 107/224 246/291 247/290
f 107/224 105/223 245/292 246/291
f 105/223 103/222 244/293 245/292
f 103/222 101/221 243/294 244/293
f 101/221 99/220 242/295 243/294
f 99/219 97/218 241/296 242/297
f 97/218 95/217 240/298 241/296
f 95/217 93/216 239/299 240/298
f 93/216 91/215 238/300 239/299
f 91/215 89/164 237/167 238/300
f 226/280 194/301 195/272 227/271
f 257/279 225/302 194/301 226/280
f 256/281 224/303 225/302 257/279
f 255/282 223/304 224/303 256/281
f 254/283 222/305 223/304 255/282
f 253/284 221/306 222/305 254/283
f 252/285 220/307 221/306 253/284
f 251/286 219/308 220/307 252/285
f 250/287 218/309 219/308 251/286
f 249/288 217/310 218/309 250/287
f 248/289 216/311 217/310 249/288
f 247/290 215/312 216/311 248/289
f 246/291 214/313 215/312 247/290
f 245/292 213/314 214/313 246/291
f 244/293 212/315 213/314 245/292
f 243/294 211/316 212/315 244/293
f 242/295 210/317 211/316 243/294
f 241/296 209/318 210/319 242/297
f 240/298 208/320 209/318 241/296
f 239/299 207/321 208/320 240/298
f 238/300 206/322 207/321 239/299
f 237/167 205/323 206/322 238/300
f 236/166 204/324 205/323 237/167
f 235/273 203/325 204/324 236/166
f 234/274 202/326 203/325 235/273
f 233/275 201/327 202/326 234/274
f 232/276 200/328 201/327 233/275
f 231/277 199/329 200/328 232/276
f 230/278 198/330 199/329 231/277
f 229/239 197/238 198/330 230/278
f 382/331 384/332 320/333 318/334
f 380/335 382/331 318/334 316/336
f 378/337 380/335 316/336 314/338
f 376/339 378/337 314/338 312/340
f 374/341 376/339 312/340 310/342
f 372/343 374/341 310/342 308/344
f 370/345 372/343 308/344 306/346
f 368/347 370/345 306/346 304/348
f 366/349 368/347 304/348 302/350
f 364/351 366/349 302/350 300/352
f 362/353 364/351 300/352 298/354
f 360/355 362/353 298/354 296/356
f 358/357 360/355 296/356 294/358
f 356/359 358/357 294/358 292/360
f 354/361 356/359 292/360 290/362
f 352/363 354/364 290/365 288/366
f 350/367 352/363 288/366 286/368
f 348/369 350/367 286/368 284/370
f 346/371 348/369 284/370 282/372
f 344/373 346/371 282/372 280/374
f 342/375 344/373 280/374 278/376
f 340/377 342/375 278/376 276/378
f 338/379 340/377 276/378 274/380
f 336/381 338/379 274/380 272/382
f 334/383 336/381 272/382 270/384
f 332/385 334/383 270/384 268/386
f 330/387 332/385 268/386 266/388
f 328/389 330/387 266/388 264/390
f 326/391 328/389 264/390 262/392
f 324/393 326/391 262/392 260/394
f 281/395 279/396 428/397 429/398
f 325/399 323/400 259/401 261/402
f 322/403 324/393 260/394 258/404
f 302/350 304/348 409/405 408/406
f 322/403 323/400 325/399 324/393
f 324/393 325/399 327/407 326/391
f 326/391 327/407 329/408 328/389
f 328/389 329/408 331/409 330/387
f 330/387 331/409 333/410 332/385
f 332/385 333/410 335/411 334/383
f 334/383 335/411 337/412 336/381
f 336/381 337/412 339/413 338/379
f 338/379 339/413 341/414 340/377
f 340/377 341/414 343/415 342/375
f 342/375 343/415 345/416 344/373
f 344/373 345/416 347/417 346/371
f 346/371 347/417 349/418 348/369
f 348/369 349/418 351/419 350/367
f 350/367 351/419 353/420 352/363
f 352/363 353/420 355/421 354/364
f 354/361 355/422 357/423 356/359
f 356/359 357/423 359/424 358/357
f 358/357 359/424 361/425 360/355
f 360/355 361/425 363/426 362/353
f 362/353 363/426 365/427 364/351
f 364/351 365/427 367/428 366/349
f 366/349 367/428 369/429 368/347
f 368/347 369/429 371/430 370/345
f 370/345 371/430 373/431 372/343
f 372/343 373/431 375/432 374/341
f 374/341 375/432 377/433 376/339
f 376/339 377/433 379/434 378/337
f 378/337 379/434 381/435 380/335
f 380/335 381/435 383/436 382/331
f 384/332 385/437 323/400 322/403
f 382/331 383/436 385/437 384/332
f 384/332 322/403 258/404 320/333
f 327/407 325/399 261/402 263/438
f 329/408 327/407 263/438 265/439
f 331/409 329/408 265/439 267/440
f 333/410 331/409 267/440 269/441
f 335/411 333/410 269/441 271/442
f 337/412 335/411 271/442 273/443
f 339/413 337/412 273/443 275/444
f 341/414 339/413 275/444 277/445
f 343/415 341/414 277/445 279/396
f 345/416 343/415 279/396 281/395
f 347/417 345/416 281/395 283/446
f 349/418 347/417 283/446 285/447
f 351/419 349/418 285/447 287/448
f 353/420 351/419 287/448 289/449
f 355/421 353/420 289/449 291/450
f 357/423 355/422 291/451 293/452
f 359/424 357/423 293/452 295/453
f 361/425 359/424 295/453 297/454
f 363/426 361/425 297/454 299/455
f 365/427 363/426 299/455 301/456
f 367/428 365/427 301/456 303/457
f 369/429 367/428 303/457 305/458
f 371/430 369/429 305/458 307/459
f 373/431 371/430 307/459 309/460
f 375/432 373/431 309/460 311/461
f 377/433 375/432 311/461 313/462
f 379/434 377/433 313/462 315/463
f 381/435 379/434 315/463 317/464
f 383/436 381/435 317/464 319/465
f 385/437 383/436 319/465 321/466
f 323/400 385/437 321/466 259/401
f 420/467 388/468 389/469 421/470
f 258/404 260/394 387/471 386/472
f 300/352 302/350 408/406 407/473
f 298/354 300/352 407/473 406/474
f 296/356 298/354 406/474 405/475
f 294/358 296/356 405/475 404/476
f 292/360 294/358 404/476 403/477
f 290/362 292/360 403/477 402/478
f 288/366 290/365 402/479 401/480
f 286/368 288/366 401/480 400/481
f 284/370 286/368 400/481 399/482
f 282/372 284/370 399/482 398/483
f 280/374 282/372 398/483 397/484
f 278/376 280/374 397/484 396/485
f 276/378 278/376 396/485 395/486
f 274/380 276/378 395/486 394/487
f 272/382 274/380 394/487 393/488
f 270/384 272/382 393/488 392/489
f 268/386 270/384 392/489 391/490
f 266/388 268/386 391/490 390/491
f 264/390 266/388 390/491 389/492
f 262/392 264/390 389/492 388/493
f 260/394 262/392 388/493 387/471
f 320/333 258/404 386/472 417/494
f 318/334 320/333 417/494 416/495
f 316/336 318/334 416/495 415/496
f 314/338 316/336 415/496 414/497
f 312/340 314/338 414/497 413/498
f 310/342 312/340 413/498 412/499
f 308/344 310/342 412/499 411/500
f 306/346 308/344 411/500 410/501
f 304/348 306/346 410/501 409/405
f 419/502 387/503 388/468 420/467
f 279/396 277/445 427/504 428/397
f 277/445 275/444 426/505 427/504
f 275/444 273/443 425/506 426/505
f 273/443 271/442 424/507 425/506
f 271/442 269/441 423/508 424/507
f 269/441 267/440 422/509 423/508
f 267/440 265/439 421/470 422/509
f 265/439 263/438 420/467 421/470
f 263/438 261/402 419/502 420/467
f 259/401 321/466 449/510 418/511
f 321/466 319/465 448/512 449/510
f 319/465 317/464 447/513 448/512
f 317/464 315/463 446/514 447/513
f 315/463 313/462 445/515 446/514
f 313/462 311/461 444/516 445/515
f 311/461 309/460 443/517 444/516
f 309/460 307/459 442/518 443/517
f 307/459 305/458 441/519 442/518
f 305/458 303/457 440/520 441/519
f 261/402 259/401 418/511 419/502
f 303/457 301/456 439/521 440/520
f 301/456 299/455 438/522 439/521
f 299/455 297/454 437/523 438/522
f 297/454 295/453 436/524 437/523
f 295/453 293/452 435/525 436/524
f 293/452 291/451 434/526 435/525
f 291/450 289/449 433/527 434/528
f 289/449 287/448 432/529 433/527
f 287/448 285/447 431/530 432/529
f 285/447 283/446 430/531 431/530
f 283/446 281/395 429/398 430/531
f 418/511 386/532 387/503 419/502
f 449/510 417/533 386/532 418/511
f 448/512 416/534 417/533 449/510
f 447/513 415/535 416/534 448/512
f 446/514 414/536 415/535 447/513
f 445/515 413/537 414/536 446/514
f 444/516 412/538 413/537 445/515
f 443/517 411/539 412/538 444/516
f 442/518 410/540 411/539 443/517
f 441/519 409/541 410/540 442/518
f 440/520 408/542 409/541 441/519
f 439/521 407/543 408/542 440/520
f 438/522 406/544 407/543 439/521
f 437/523 405/545 406/544 438/522
f 436/524 404/546 405/545 437/523
f 435/525 403/547 404/546 436/524
f 434/526 402/548 403/547 435/525
f 433/527 401/549 402/550 434/528
f 432/529 400/551 401/549 433/527
f 431/530 399/552 400/551 432/529
f 430/531 398/553 399/552 431/530
f 429/398 397/554 398/553 430/531
f 428/397 396/555 397/554 429/398
f 427/504 395/556 396/555 428/397
f 426/505 394/557 395/556 427/504
f 425/506 393/558 394/557 426/505
f 424/507 392/559 393/558 425/506
f 423/508 391/560 392/559 424/507
f 422/509 390/561 391/560 423/508
f 421/470 389/469 390/561 422/509
f 553/562 451/563 453/564 552/565
f 552/565 453/564 455/566 551/567
f 551/567 455/566 457/568 550/569
f 550/569 457/568 459/570 561/571
f 561/571 459/570 461/572 560/573
f 560/573 461/572 463/574 559/575
f 559/575 463/574 465/576 558/577
f 558/577 465/576 467/578 585/579
f 585/579 467/578 469/580 584/581
f 584/581 469/580 471/582 583/583
f 583/583 471/582 473/584 582/585
f 582/585 473/584 475/586 589/587
f 589/587 475/586 477/588 588/589
f 588/589 477/588 479/590 587/591
f 587/591 479/590 481/592 586/593
f 586/593 481/592 483/594 597/595
f 597/595 483/594 485/596 596/597
f 596/597 485/596 487/598 595/599
f 595/599 487/598 489/600 594/601
f 594/601 489/600 491/602 549/603
f 549/603 491/602 493/604 548/605
f 548/605 493/604 495/606 547/607
f 547/607 495/606 497/608 546/609
f 546/609 497/608 499/610 573/611
f 573/611 499/610 501/612 572/613
f 572/613 501/612 503/614 571/615
f 571/615 503/614 505/616 570/617
f 570/617 505/616 507/618 577/619
f 577/619 507/618 509/620 576/621
f 576/621 509/620 511/622 575/623
f 451/563 513/624 641/625 610/626
f 574/627 513/624 451/563 553/562
f 575/623 511/622 513/628 574/629
f 470/630 472/631 685/632 684/633
f 787/634 514/635 515/636 788/637
f 788/637 515/636 516/638 790/639
f 790/639 516/638 517/640 791/641
f 791/641 517/640 518/642 789/643
f 789/643 518/642 519/644 772/645
f 772/645 519/644 520/646 774/647
f 774/647 520/646 521/648 775/649
f 775/649 521/648 522/650 773/651
f 773/651 522/650 523/652 796/653
f 796/653 523/652 524/654 798/655
f 798/655 524/654 525/656 799/657
f 799/657 525/656 526/658 797/659
f 797/659 526/658 527/660 801/661
f 801/661 527/660 528/662 802/663
f 802/663 528/662 529/664 800/665
f 800/665 529/664 530/666 803/667
f 803/667 530/666 531/668 780/669
f 780/669 531/668 532/670 782/671
f 782/671 532/670 533/672 783/673
f 783/673 533/672 534/674 781/675
f 781/675 534/674 535/676 792/677
f 792/677 535/676 536/678 794/679
f 794/679 536/678 537/680 795/681
f 795/681 537/680 538/682 793/683
f 793/683 538/682 539/684 777/685
f 777/685 539/684 540/686 778/687
f 778/687 540/686 541/688 776/689
f 776/689 541/688 542/690 779/691
f 779/691 542/690 543/692 785/693
f 785/693 543/692 544/694 786/695
f 784/696 545/697 514/635 787/634
f 786/695 544/694 545/698 784/699
f 754/700 573/611 572/613 753/701
f 755/702 571/615 570/617 752/703
f 749/704 560/573 559/575 751/705
f 753/701 572/613 571/615 755/702
f 764/706 586/593 597/595 770/707
f 480/708 600/709 601/710 482/711
f 452/712 578/713 579/714 454/715
f 746/716 553/562 552/565 745/717
f 478/718 599/719 600/709 480/708
f 763/720 583/583 582/585 760/721
f 745/717 552/565 551/567 747/722
f 742/723 549/603 548/605 741/724
f 760/721 582/585 589/587 766/725
f 759/726 575/623 574/629 756/727
f 741/724 548/605 547/607 743/728
f 490/729 569/730 590/731 492/732
f 498/733 593/734 605/735 500/736
f 751/705 559/575 558/577 748/737
f 770/707 597/595 596/597 769/738
f 748/737 558/577 585/579 762/739
f 752/703 570/617 577/619 758/740
f 769/738 596/597 595/599 771/741
f 758/740 577/619 576/621 757/742
f 510/743 608/744 607/745 512/746
f 747/722 551/567 550/569 744/747
f 460/748 562/749 563/750 462/751
f 766/725 589/587 588/589 765/752
f 744/747 550/569 561/571 750/753
f 743/728 547/607 546/609 740/754
f 765/752 588/589 587/591 767/755
f 740/754 546/609 573/611 754/700
f 470/630 555/756 556/757 472/631
f 454/715 579/714 580/758 456/759
f 496/760 592/761 593/734 498/733
f 506/762 602/763 609/764 508/765
f 762/739 585/579 584/581 761/766
f 771/741 595/599 594/601 768/767
f 761/766 584/581 583/583 763/720
f 757/742 576/621 575/623 759/726
f 768/767 594/601 549/603 742/723
f 756/768 574/627 553/562 746/716
f 472/631 556/757 557/769 474/770
f 502/771 604/772 603/773 504/774
f 750/753 561/571 560/573 749/704
f 767/755 587/591 586/593 764/706
f 508/765 609/764 608/744 510/743
f 458/775 581/776 562/749 460/748
f 484/777 566/778 567/779 486/780
f 512/781 607/782 606/783 450/784
f 466/785 565/786 554/787 468/788
f 450/784 606/783 578/713 452/712
f 500/736 605/735 604/772 502/771
f 492/732 590/731 591/789 494/790
f 494/790 591/789 592/761 496/760
f 486/780 567/779 568/791 488/792
f 474/770 557/769 598/793 476/794
f 488/792 568/791 569/730 490/729
f 456/759 580/758 581/776 458/775
f 476/794 598/793 599/719 478/718
f 468/788 554/787 555/756 470/630
f 504/774 603/773 602/763 506/762
f 462/751 563/750 564/795 464/796
f 482/711 601/710 566/778 484/777
f 464/796 564/795 565/786 466/785
f 622/797 621/798 653/799 654/800
f 513/628 511/622 640/801 641/802
f 511/622 509/620 639/803 640/801
f 509/620 507/618 638/804 639/803
f 507/618 505/616 637/805 638/804
f 505/616 503/614 636/806 637/805
f 503/614 501/612 635/807 636/806
f 501/612 499/610 634/808 635/807
f 499/610 497/608 633/809 634/808
f 497/608 495/606 632/810 633/809
f 453/564 451/563 610/626 611/811
f 495/606 493/604 631/812 632/810
f 493/604 491/602 630/813 631/812
f 491/602 489/600 629/814 630/813
f 489/600 487/598 628/815 629/814
f 487/598 485/596 627/816 628/815
f 485/596 483/594 626/817 627/816
f 483/594 481/592 625/818 626/817
f 481/592 479/590 624/819 625/818
f 479/590 477/588 623/820 624/819
f 477/588 475/586 622/797 623/820
f 475/586 473/584 621/798 622/797
f 473/584 471/582 620/821 621/798
f 471/582 469/580 619/822 620/821
f 469/580 467/578 618/823 619/822
f 467/578 465/576 617/824 618/823
f 465/576 463/574 616/825 617/824
f 463/574 461/572 615/826 616/825
f 461/572 459/570 614/827 615/826
f 459/570 457/568 613/828 614/827
f 457/568 455/566 612/829 613/828
f 455/566 453/564 611/811 612/829
f 619/822 618/823 650/830 651/831
f 616/825 615/826 647/832 648/833
f 613/828 612/829 644/834 645/835
f 610/626 641/625 673/836 642/837
f 639/803 638/804 670/838 671/839
f 636/806 635/807 667/840 668/841
f 633/809 632/810 664/842 665/843
f 630/813 629/814 661/844 662/845
f 627/816 626/817 658/846 659/847
f 624/819 623/820 655/848 656/849
f 621/798 620/821 652/850 653/799
f 618/823 617/824 649/851 650/830
f 615/826 614/827 646/852 647/832
f 612/829 611/811 643/853 644/834
f 641/802 640/801 672/854 673/855
f 638/804 637/805 669/856 670/838
f 635/807 634/808 666/857 667/840
f 632/810 631/812 663/858 664/842
f 629/814 628/815 660/859 661/844
f 626/817 625/818 657/860 658/846
f 623/820 622/797 654/800 655/848
f 620/821 619/822 651/831 652/850
f 617/824 616/825 648/833 649/851
f 614/827 613/828 645/835 646/852
f 611/811 610/626 642/837 643/853
f 640/801 639/803 671/839 672/854
f 637/805 636/806 668/841 669/856
f 634/808 633/809 665/843 666/857
f 631/812 630/813 662/845 663/858
f 628/815 627/816 659/847 660/859
f 625/818 624/819 656/849 657/860
f 691/861 692/862 724/863 723/864
f 468/788 470/630 684/633 683/865
f 466/785 468/788 683/865 682/866
f 464/796 466/785 682/866 681/867
f 462/751 464/796 681/867 680/868
f 460/748 462/751 680/868 679/869
f 458/775 460/748 679/869 678/870
f 456/759 458/775 678/870 677/871
f 454/715 456/759 677/871 676/872
f 452/712 454/715 676/872 675/873
f 512/781 450/784 674/874 705/875
f 510/743 512/746 705/876 704/877
f 508/765 510/743 704/877 703/878
f 506/762 508/765 703/878 702/879
f 504/774 506/762 702/879 701/880
f 502/771 504/774 701/880 700/881
f 500/736 502/771 700/881 699/882
f 498/733 500/736 699/882 698/883
f 496/760 498/733 698/883 697/884
f 494/790 496/760 697/884 696/885
f 450/784 452/712 675/873 674/874
f 492/732 494/790 696/885 695/886
f 490/729 492/732 695/886 694/887
f 488/792 490/729 694/887 693/888
f 486/780 488/792 693/888 692/862
f 484/777 486/780 692/862 691/861
f 482/711 484/777 691/861 690/889
f 480/708 482/711 690/889 689/890
f 478/718 480/708 689/890 688/891
f 476/794 478/718 688/891 687/892
f 474/770 476/794 687/892 686/893
f 472/631 474/770 686/893 685/632
f 688/891 689/890 721/894 720/895
f 685/632 686/893 718/896 717/897
f 682/866 683/865 715/898 714/899
f 679/869 680/868 712/900 711/901
f 676/872 677/871 709/902 708/903
f 705/875 674/874 706/904 737/905
f 702/879 703/878 735/906 734/907
f 699/882 700/881 732/908 731/909
f 696/885 697/884 729/910 728/911
f 693/888 694/887 726/912 725/913
f 690/889 691/861 723/864 722/914
f 687/892 688/891 720/895 719/915
f 684/633 685/632 717/897 716/916
f 681/867 682/866 714/899 713/917
f 678/870 679/869 711/901 710/918
f 675/873 676/872 708/903 707/919
f 704/877 705/876 737/920 736/921
f 701/880 702/879 734/907 733/922
f 698/883 699/882 731/909 730/923
f 695/886 696/885 728/911 727/924
f 692/862 693/888 725/913 724/863
f 689/890 690/889 722/914 721/894
f 686/893 687/892 719/915 718/896
f 683/865 684/633 716/916 715/898
f 680/868 681/867 713/917 712/900
f 677/871 678/870 710/918 709/902
f 674/874 675/873 707/919 706/904
f 703/878 704/877 736/921 735/906
f 700/881 701/880 733/922 732/908
f 697/884 698/883 730/923 729/910
f 694/887 695/886 727/924 726/912
f 670/925 669/926 738/927
f 667/928 666/929 738/927
f 664/930 663/931 738/927
f 661/932 660/933 738/927
f 658/934 657/935 738/927
f 655/936 654/937 738/927
f 652/938 651/939 738/927
f 649/940 648/941 738/927
f 646/942 645/943 738/927
f 643/944 642/945 738/927
f 672/946 671/947 738/927
f 669/926 668/948 738/927
f 666/929 665/949 738/927
f 663/931 662/950 738/927
f 660/933 659/951 738/927
f 657/935 656/952 738/927
f 654/937 653/953 738/927
f 651/939 650/954 738/927
f 648/941 647/955 738/927
f 645/943 644/956 738/927
f 642/945 673/957 738/927
f 671/947 670/925 738/927
f 668/948 667/928 738/927
f 665/949 664/930 738/927
f 662/950 661/932 738/927
f 659/951 658/934 738/927
f 656/952 655/936 738/927
f 653/953 652/938 738/927
f 650/954 649/940 738/927
f 647/955 646/942 738/927
f 644/956 643/944 738/927
f 673/957 672/946 738/927
f 736/958 737/959 739/960
f 733/961 734/962 739/960
f 730/963 731/964 739/960
f 727/965 728/966 739/960
f 724/967 725/968 739/960
f 721/969 722/970 739/960
f 718/971 719/972 739/960
f 715/973 716/974 739/960
f 712/975 713/976 739/960
f 709/977 710/978 739/960
f 706/979 707/980 739/960
f 735/981 736/958 739/960
f 732/982 733/961 739/960
f 729/983 730/963 739/960
f 726/984 727/965 739/960
f 723/985 724/967 739/960
f 720/986 721/969 739/960
f 717/987 718/971 739/960
f 714/988 715/973 739/960
f 711/989 712/975 739/960
f 708/990 709/977 739/960
f 737/959 706/979 739/960
f 734/962 735/981 739/960
f 731/964 732/982 739/960
f 728/966 729/983 739/960
f 725/968 726/984 739/960
f 722/970 723/985 739/960
f 719/972 720/986 739/960
f 716/974 717/987 739/960
f 713/976 714/988 739/960
f 710/978 711/989 739/960
f 707/980 708/990 739/960
f 538/682 754/700 753/701 539/684
f 540/686 755/702 752/703 541/688
f 519/644 749/704 751/705 520/646
f 539/684 753/701 755/702 540/686
f 529/664 764/706 770/707 530/666
f 514/635 746/716 745/717 515/636
f 524/654 763/720 760/721 525/656
f 515/636 745/717 747/722 516/638
f 534/674 742/723 741/724 535/676
f 525/656 760/721 766/725 526/658
f 544/694 759/726 756/727 545/698
f 535/676 741/724 743/728 536/678
f 520/646 751/705 748/737 521/648
f 530/666 770/707 769/738 531/668
f 521/648 748/737 762/739 522/650
f 541/688 752/703 758/740 542/690
f 531/668 769/738 771/741 532/670
f 542/690 758/740 757/742 543/692
f 516/638 747/722 744/747 517/640
f 526/658 766/725 765/752 527/660
f 517/640 744/747 750/753 518/642
f 536/678 743/728 740/754 537/680
f 527/660 765/752 767/755 528/662
f 537/680 740/754 754/700 538/682
f 522/650 762/739 761/766 523/652
f 532/670 771/741 768/767 533/672
f 523/652 761/766 763/720 524/654
f 543/692 757/742 759/726 544/694
f 533/672 768/767 742/723 534/674
f 545/697 756/768 746/716 514/635
f 518/642 750/753 749/704 519/644
f 528/662 767/755 764/706 529/664
f 581/776 789/643 772/645 562/749
f 599/719 802/663 800/665 600/709
f 591/789 794/679 795/681 592/761
f 604/772 778/687 776/689 603/773
f 557/769 797/659 801/661 598/793
f 607/782 784/696 787/634 606/783
f 563/750 774/647 775/649 564/795
f 566/778 780/669 782/671 567/779
f 590/731 792/677 794/679 591/789
f 554/787 796/653 798/655 555/756
f 598/793 801/661 802/663 599/719
f 556/757 799/657 797/659 557/769
f 579/714 790/639 791/641 580/758
f 609/764 785/693 786/695 608/744
f 601/710 803/667 780/669 566/778
f 555/756 798/655 799/657 556/757
f 602/763 779/691 785/693 609/764
f 569/730 781/675 792/677 590/731
f 564/795 775/649 773/651 565/786
f 608/744 786/695 784/699 607/745
f 593/734 793/683 777/685 605/735
f 606/783 787/634 788/637 578/713
f 605/735 777/685 778/687 604/772
f 592/761 795/681 793/683 593/734
f 578/713 788/637 790/639 579/714
f 600/709 800/665 803/667 601/710
f 568/791 783/673 781/675 569/730
f 580/758 791/641 789/643 581/776
f 603/773 776/689 779/691 602/763
f 567/779 782/671 783/673 568/791
f 565/786 773/651 796/653 554/787
f 562/749 772/645 774/647 563/750
