# Blender MTL File: 'baloon.blend1'
# Material Count: 2

newmtl Goma
Ns 96.078431
Ka 0.000000 0.000000 0.000000
Kd 0.640000 0.000000 0.000000
Ks 1.000000 1.000000 1.000000
Ni 1.000000
d 1.000000
illum 2

newmtl Rope
Ns 96.078431
Ka 0.000000 0.000000 0.000000
Kd 0.640000 0.640000 0.640000
Ks 0.500000 0.500000 0.500000
Ni 1.000000
d 1.000000
illum 2
map_Kd rope-160161_1280.png
