# Blender v2.69 (sub 0) OBJ File: 'baloon.blend1'
# www.blender.org
mtllib baloon.mtl
o Rope_Cylinder.001
v 0.000000 -4.000000 -0.050000
v 0.000000 4.000000 -0.050000
v 0.009755 -4.000000 -0.049039
v 0.009755 4.000000 -0.049039
v 0.019134 -4.000000 -0.046194
v 0.019134 4.000000 -0.046194
v 0.027779 -4.000000 -0.041573
v 0.027779 4.000000 -0.041573
v 0.035355 -4.000000 -0.035355
v 0.035355 4.000000 -0.035355
v 0.041573 -4.000000 -0.027779
v 0.041573 4.000000 -0.027779
v 0.046194 -4.000000 -0.019134
v 0.046194 4.000000 -0.019134
v 0.049039 -4.000000 -0.009755
v 0.049039 4.000000 -0.009755
v 0.050000 -4.000000 -0.000000
v 0.050000 4.000000 -0.000000
v 0.049039 -4.000000 0.009755
v 0.049039 4.000000 0.009755
v 0.046194 -4.000000 0.019134
v 0.046194 4.000000 0.019134
v 0.041573 -4.000000 0.027779
v 0.041573 4.000000 0.027779
v 0.035355 -4.000000 0.035355
v 0.035355 4.000000 0.035355
v 0.027779 -4.000000 0.041573
v 0.027779 4.000000 0.041573
v 0.019134 -4.000000 0.046194
v 0.019134 4.000000 0.046194
v 0.009755 -4.000000 0.049039
v 0.009755 4.000000 0.049039
v -0.000000 -4.000000 0.050000
v -0.000000 4.000000 0.050000
v -0.009755 -4.000000 0.049039
v -0.009755 4.000000 0.049039
v -0.019134 -4.000000 0.046194
v -0.019134 4.000000 0.046194
v -0.027779 -4.000000 0.041573
v -0.027779 4.000000 0.041573
v -0.035355 -4.000000 0.035355
v -0.035355 4.000000 0.035355
v -0.041574 -4.000000 0.027778
v -0.041574 4.000000 0.027778
v -0.046194 -4.000000 0.019134
v -0.046194 4.000000 0.019134
v -0.049039 -4.000000 0.009754
v -0.049039 4.000000 0.009754
v -0.050000 -4.000000 -0.000000
v -0.050000 4.000000 -0.000000
v -0.049039 -4.000000 -0.009755
v -0.049039 4.000000 -0.009755
v -0.046194 -4.000000 -0.019134
v -0.046194 4.000000 -0.019134
v -0.041573 -4.000000 -0.027779
v -0.041573 4.000000 -0.027779
v -0.035355 -4.000000 -0.035355
v -0.035355 4.000000 -0.035355
v -0.027778 -4.000000 -0.041574
v -0.027778 4.000000 -0.041574
v -0.019134 -4.000000 -0.046194
v -0.019134 4.000000 -0.046194
v -0.009754 -4.000000 -0.049039
v -0.009754 4.000000 -0.049039
vt 0.502376 0.097961
vt 0.501666 0.905643
vt 0.513040 0.905643
vt 0.513750 0.097961
vt 0.523977 0.905643
vt 0.524686 0.097961
vt 0.534056 0.905643
vt 0.534766 0.097961
vt 0.542891 0.905643
vt 0.543601 0.097961
vt 0.490292 0.905643
vt 0.491002 0.097961
vt 0.479355 0.905643
vt 0.480065 0.097961
vt 0.469276 0.905643
vt 0.469985 0.097961
vt 0.460441 0.905643
vt 0.461150 0.097961
vt 0.502375 0.097961
vt 0.524687 0.097961
vt 0.534057 0.905643
vt 0.500134 0.142427
vt 0.500000 0.142433
vt 0.499866 0.142427
vt 0.499738 0.142407
vt 0.499620 0.142375
vt 0.499516 0.142333
vt 0.499431 0.142281
vt 0.499368 0.142222
vt 0.499329 0.142158
vt 0.499316 0.142091
vt 0.499329 0.142024
vt 0.499368 0.141960
vt 0.499431 0.141901
vt 0.499516 0.141849
vt 0.499620 0.141806
vt 0.499738 0.141775
vt 0.499866 0.141755
vt 0.500000 0.141749
vt 0.500134 0.141755
vt 0.500262 0.141775
vt 0.500380 0.141806
vt 0.500484 0.141849
vt 0.500569 0.141901
vt 0.500632 0.141960
vt 0.500671 0.142024
vt 0.500684 0.142091
vt 0.500671 0.142158
vt 0.500632 0.142222
vt 0.500569 0.142281
vt 0.500484 0.142333
vt 0.500380 0.142375
vt 0.500262 0.142407
vt 0.500134 0.141742
vt 0.500262 0.141723
vt 0.513841 0.127996
vt 0.517616 0.126447
vt 0.520715 0.124559
vt 0.523017 0.122406
vt 0.524435 0.120069
vt 0.524913 0.117639
vt 0.524435 0.115209
vt 0.523017 0.112872
vt 0.520715 0.110718
vt 0.517616 0.108831
vt 0.513841 0.107281
vt 0.509534 0.106130
vt 0.504860 0.105421
vt 0.500000 0.105182
vt 0.495140 0.105421
vt 0.490466 0.106130
vt 0.486159 0.107281
vt 0.482384 0.108831
vt 0.479285 0.110718
vt 0.476983 0.112872
vt 0.475565 0.115209
vt 0.475087 0.117639
vt 0.475565 0.120069
vt 0.476983 0.122406
vt 0.479285 0.124559
vt 0.482384 0.126447
vt 0.486159 0.127996
vt 0.499738 0.141723
vt 0.499866 0.141742
usemtl Rope
s off
f 1/1 2/2 4/3 3/4
f 3/4 4/3 6/5 5/6
f 5/6 6/5 8/7 7/8
f 7/8 8/7 10/9 9/10
f 9/10 10/9 12/7 11/8
f 11/8 12/7 14/5 13/6
f 13/6 14/5 16/3 15/4
f 15/4 16/3 18/2 17/1
f 17/1 18/2 20/11 19/12
f 19/12 20/11 22/13 21/14
f 21/14 22/13 24/15 23/16
f 23/16 24/15 26/17 25/18
f 25/10 26/9 28/7 27/8
f 27/8 28/7 30/5 29/6
f 29/6 30/5 32/3 31/4
f 31/4 32/3 34/2 33/19
f 33/19 34/2 36/11 35/12
f 35/12 36/11 38/13 37/14
f 37/14 38/13 40/15 39/16
f 39/16 40/15 42/17 41/18
f 41/18 42/17 44/15 43/16
f 43/16 44/15 46/13 45/14
f 45/14 46/13 48/11 47/12
f 47/12 48/11 50/2 49/1
f 49/1 50/2 52/3 51/4
f 51/4 52/3 54/5 53/20
f 53/20 54/5 56/21 55/8
f 55/8 56/21 58/9 57/10
f 57/18 58/17 60/15 59/16
f 59/16 60/15 62/13 61/14
f 4/22 2/23 64/24 62/25 60/26 58/27 56/28 54/29 52/30 50/31 48/32 46/33 44/34 42/35 40/36 38/37 36/38 34/39 32/40 30/41 28/42 26/43 24/44 22/45 20/46 18/47 16/48 14/49 12/50 10/51 8/52 6/53
f 63/12 64/11 2/2 1/1
f 61/14 62/13 64/11 63/12
f 1/39 3/54 5/55 7/56 9/57 11/58 13/59 15/60 17/61 19/62 21/63 23/64 25/65 27/66 29/67 31/68 33/69 35/70 37/71 39/72 41/73 43/74 45/75 47/76 49/77 51/78 53/79 55/80 57/81 59/82 61/83 63/84
o Baloon_Cylinder
v 0.000000 4.725350 -1.000000
v -0.000000 4.943358 -1.071122
v 0.195090 4.725350 -0.980785
v 0.208966 4.943358 -1.050541
v 0.382683 4.725350 -0.923880
v 0.409901 4.943358 -0.989588
v 0.555570 4.725350 -0.831470
v 0.595084 4.943358 -0.890606
v 0.707107 4.725350 -0.707107
v 0.757398 4.943358 -0.757398
v 0.831470 4.725350 -0.555570
v 0.890606 4.943358 -0.595084
v 0.923880 4.725350 -0.382683
v 0.989588 4.943358 -0.409901
v 0.980785 4.725350 -0.195090
v 1.050541 4.943358 -0.208966
v 1.000000 4.725350 -0.000000
v 1.071122 4.943358 -0.000000
v 0.980785 4.725350 0.195090
v 1.050541 4.943358 0.208966
v 0.923880 4.725350 0.382683
v 0.989588 4.943358 0.409901
v 0.831470 4.725350 0.555570
v 0.890606 4.943358 0.595084
v 0.707107 4.725350 0.707107
v 0.757398 4.943358 0.757398
v 0.555570 4.725350 0.831470
v 0.595084 4.943358 0.890606
v 0.382683 4.725350 0.923880
v 0.409901 4.943358 0.989588
v 0.195090 4.725350 0.980785
v 0.208965 4.943358 1.050541
v -0.000000 4.725350 1.000000
v -0.000000 4.943358 1.071122
v -0.195091 4.725350 0.980785
v -0.208966 4.943358 1.050541
v -0.382684 4.725350 0.923879
v -0.409901 4.943358 0.989588
v -0.555571 4.725350 0.831469
v -0.595084 4.943358 0.890605
v -0.707107 4.725350 0.707106
v -0.757398 4.943358 0.757397
v -0.831470 4.725350 0.555570
v -0.890606 4.943358 0.595083
v -0.923880 4.725350 0.382683
v -0.989588 4.943358 0.409900
v -0.980785 4.725350 0.195089
v -1.050541 4.943358 0.208965
v -1.000000 4.725350 -0.000001
v -1.071122 4.943358 -0.000001
v -0.980785 4.725350 -0.195091
v -1.050541 4.943358 -0.208967
v -0.923879 4.725350 -0.382684
v -0.989588 4.943358 -0.409902
v -0.831469 4.725350 -0.555571
v -0.890605 4.943358 -0.595085
v -0.707106 4.725350 -0.707108
v -0.757397 4.943358 -0.757399
v -0.555569 4.725350 -0.831470
v -0.595083 4.943358 -0.890607
v -0.382682 4.725350 -0.923880
v -0.409899 4.943358 -0.989589
v -0.195089 4.725350 -0.980786
v -0.208964 4.943358 -1.050541
v 0.000000 4.386281 -0.791781
v 0.154469 4.386281 -0.776567
v 0.303001 4.386281 -0.731510
v 0.439890 4.386281 -0.658342
v 0.559873 4.386281 -0.559873
v 0.658342 4.386281 -0.439890
v 0.731510 4.386281 -0.303001
v 0.776567 4.386281 -0.154469
v 0.791781 4.386281 -0.000000
v 0.776567 4.386281 0.154469
v 0.731510 4.386281 0.303001
v 0.658342 4.386281 0.439890
v 0.559873 4.386281 0.559873
v 0.439890 4.386281 0.658341
v 0.303001 4.386281 0.731510
v 0.154469 4.386281 0.776567
v -0.000000 4.386281 0.791780
v -0.154469 4.386281 0.776567
v -0.303002 4.386281 0.731510
v -0.439890 4.386281 0.658341
v -0.559874 4.386281 0.559873
v -0.658342 4.386281 0.439889
v -0.731510 4.386281 0.303001
v -0.776567 4.386281 0.154468
v -0.791780 4.386281 -0.000001
v -0.776567 4.386281 -0.154470
v -0.731510 4.386281 -0.303002
v -0.658341 4.386281 -0.439891
v -0.559873 4.386281 -0.559874
v -0.439889 4.386281 -0.658342
v -0.303000 4.386281 -0.731510
v -0.154468 4.386281 -0.776567
v 0.000000 4.047212 -0.424583
v 0.082832 4.047212 -0.416425
v 0.162481 4.047212 -0.392264
v 0.235886 4.047212 -0.353028
v 0.300226 4.047212 -0.300226
v 0.353028 4.047212 -0.235886
v 0.392264 4.047212 -0.162481
v 0.416425 4.047212 -0.082832
v 0.424583 4.047212 -0.000000
v 0.416425 4.047212 0.082832
v 0.392264 4.047212 0.162481
v 0.353028 4.047212 0.235886
v 0.300226 4.047212 0.300225
v 0.235886 4.047212 0.353028
v 0.162481 4.047212 0.392263
v 0.082832 4.047212 0.416425
v -0.000000 4.047212 0.424583
v -0.082832 4.047212 0.416425
v -0.162481 4.047212 0.392263
v -0.235886 4.047212 0.353028
v -0.300226 4.047212 0.300225
v -0.353028 4.047212 0.235885
v -0.392264 4.047212 0.162480
v -0.416425 4.047212 0.082832
v -0.424583 4.047212 -0.000001
v -0.416425 4.047212 -0.082833
v -0.392263 4.047212 -0.162482
v -0.353028 4.047212 -0.235886
v -0.300225 4.047212 -0.300226
v -0.235885 4.047212 -0.353028
v -0.162480 4.047212 -0.392264
v -0.082831 4.047212 -0.416425
v 0.000000 3.821166 -0.092345
v 0.018016 3.821166 -0.090570
v 0.035339 3.821166 -0.085315
v 0.051304 3.821166 -0.076782
v 0.065297 3.821166 -0.065298
v 0.076782 3.821166 -0.051304
v 0.085315 3.821166 -0.035339
v 0.090570 3.821166 -0.018016
v 0.092344 3.821166 -0.000000
v 0.090570 3.821166 0.018015
v 0.085315 3.821166 0.035338
v 0.076782 3.821166 0.051304
v 0.065297 3.821166 0.065297
v 0.051304 3.821166 0.076781
v 0.035339 3.821166 0.085315
v 0.018016 3.821166 0.090570
v 0.000000 3.821166 0.092344
v -0.018015 3.821166 0.090570
v -0.035339 3.821166 0.085315
v -0.051304 3.821166 0.076781
v -0.065297 3.821166 0.065297
v -0.076781 3.821166 0.051303
v -0.085315 3.821166 0.035338
v -0.090570 3.821166 0.018015
v -0.092344 3.821166 -0.000000
v -0.090570 3.821166 -0.018016
v -0.085315 3.821166 -0.035339
v -0.076781 3.821166 -0.051304
v -0.065297 3.821166 -0.065298
v -0.051304 3.821166 -0.076782
v -0.035338 3.821166 -0.085315
v -0.018015 3.821166 -0.090570
v -0.000000 5.321859 -1.071122
v 0.208966 5.321859 -1.050541
v 0.409901 5.321859 -0.989588
v 0.595084 5.321859 -0.890606
v 0.757398 5.321859 -0.757398
v 0.890606 5.321859 -0.595084
v 0.989588 5.321859 -0.409901
v 1.050541 5.321859 -0.208966
v 1.071122 5.321859 -0.000000
v 1.050541 5.321859 0.208966
v 0.989588 5.321859 0.409901
v 0.890606 5.321859 0.595084
v 0.757398 5.321859 0.757398
v 0.595084 5.321859 0.890606
v 0.409901 5.321859 0.989588
v 0.208965 5.321859 1.050541
v -0.000000 5.321859 1.071122
v -0.208966 5.321859 1.050541
v -0.409901 5.321859 0.989588
v -0.595084 5.321859 0.890605
v -0.757398 5.321859 0.757397
v -0.890606 5.321859 0.595083
v -0.989588 5.321859 0.409900
v -1.050541 5.321859 0.208965
v -1.071122 5.321859 -0.000001
v -1.050541 5.321859 -0.208967
v -0.989588 5.321859 -0.409902
v -0.890605 5.321859 -0.595085
v -0.757397 5.321859 -0.757399
v -0.595083 5.321859 -0.890607
v -0.409899 5.321859 -0.989589
v -0.208964 5.321859 -1.050541
v -0.000000 5.499020 -1.007624
v 0.196578 5.499020 -0.988263
v 0.385601 5.499020 -0.930923
v 0.559806 5.499020 -0.837809
v 0.712498 5.499020 -0.712498
v 0.837809 5.499020 -0.559806
v 0.930923 5.499020 -0.385601
v 0.988262 5.499020 -0.196578
v 1.007624 5.499020 -0.000000
v 0.988263 5.499020 0.196578
v 0.930923 5.499020 0.385601
v 0.837809 5.499020 0.559806
v 0.712498 5.499020 0.712498
v 0.559806 5.499020 0.837809
v 0.385601 5.499020 0.930923
v 0.196577 5.499020 0.988263
v -0.000000 5.499020 1.007624
v -0.196578 5.499020 0.988262
v -0.385601 5.499020 0.930923
v -0.559806 5.499020 0.837808
v -0.712498 5.499020 0.712497
v -0.837809 5.499020 0.559805
v -0.930923 5.499020 0.385600
v -0.988263 5.499020 0.196577
v -1.007624 5.499020 -0.000001
v -0.988262 5.499020 -0.196579
v -0.930923 5.499020 -0.385602
v -0.837808 5.499020 -0.559807
v -0.712497 5.499020 -0.712498
v -0.559805 5.499020 -0.837809
v -0.385600 5.499020 -0.930924
v -0.196576 5.499020 -0.988263
v 0.000000 5.673635 -0.858036
v 0.167395 5.673635 -0.841549
v 0.328356 5.673635 -0.792722
v 0.476699 5.673635 -0.713431
v 0.606723 5.673635 -0.606723
v 0.713431 5.673635 -0.476699
v 0.792722 5.673635 -0.328356
v 0.841549 5.673635 -0.167395
v 0.858036 5.673635 -0.000000
v 0.841549 5.673635 0.167394
v 0.792722 5.673635 0.328356
v 0.713431 5.673635 0.476699
v 0.606723 5.673635 0.606723
v 0.476699 5.673635 0.713431
v 0.328356 5.673635 0.792722
v 0.167394 5.673635 0.841549
v -0.000000 5.673635 0.858036
v -0.167395 5.673635 0.841549
v -0.328356 5.673635 0.792722
v -0.476700 5.673635 0.713430
v -0.606723 5.673635 0.606723
v -0.713431 5.673635 0.476699
v -0.792722 5.673635 0.328355
v -0.841549 5.673635 0.167394
v -0.858036 5.673635 -0.000001
v -0.841549 5.673635 -0.167395
v -0.792721 5.673635 -0.328357
v -0.713430 5.673635 -0.476700
v -0.606722 5.673635 -0.606724
v -0.476698 5.673635 -0.713431
v -0.328355 5.673635 -0.792722
v -0.167393 5.673635 -0.841549
v 0.000000 5.867584 -0.565745
v 0.110371 5.867584 -0.554875
v 0.216501 5.867584 -0.522681
v 0.314311 5.867584 -0.470400
v 0.400042 5.867584 -0.400042
v 0.470400 5.867584 -0.314311
v 0.522681 5.867584 -0.216501
v 0.554875 5.867584 -0.110372
v 0.565745 5.867584 -0.000000
v 0.554875 5.867584 0.110371
v 0.522681 5.867584 0.216501
v 0.470400 5.867584 0.314311
v 0.400042 5.867584 0.400042
v 0.314311 5.867584 0.470400
v 0.216501 5.867584 0.522680
v 0.110371 5.867584 0.554874
v -0.000000 5.867584 0.565745
v -0.110372 5.867584 0.554874
v -0.216502 5.867584 0.522680
v -0.314311 5.867584 0.470400
v -0.400043 5.867584 0.400042
v -0.470400 5.867584 0.314311
v -0.522681 5.867584 0.216501
v -0.554875 5.867584 0.110371
v -0.565745 5.867584 -0.000001
v -0.554874 5.867584 -0.110372
v -0.522680 5.867584 -0.216502
v -0.470400 5.867584 -0.314312
v -0.400042 5.867584 -0.400043
v -0.314311 5.867584 -0.470401
v -0.216501 5.867584 -0.522681
v -0.110371 5.867584 -0.554875
v 0.000000 5.973520 -0.165076
v 0.032205 5.973520 -0.161904
v 0.063172 5.973520 -0.152511
v 0.091711 5.973520 -0.137256
v 0.116726 5.973520 -0.116727
v 0.137256 5.973520 -0.091712
v 0.152510 5.973520 -0.063172
v 0.161904 5.973520 -0.032205
v 0.165076 5.973520 -0.000000
v 0.161904 5.973520 0.032204
v 0.152510 5.973520 0.063172
v 0.137256 5.973520 0.091711
v 0.116726 5.973520 0.116726
v 0.091711 5.973520 0.137255
v 0.063172 5.973520 0.152510
v 0.032205 5.973520 0.161904
v 0.000000 5.973520 0.165076
v -0.032205 5.973520 0.161904
v -0.063172 5.973520 0.152510
v -0.091711 5.973520 0.137255
v -0.116726 5.973520 0.116726
v -0.137256 5.973520 0.091711
v -0.152510 5.973520 0.063171
v -0.161904 5.973520 0.032204
v -0.165076 5.973520 -0.000000
v -0.161904 5.973520 -0.032205
v -0.152510 5.973520 -0.063172
v -0.137256 5.973520 -0.091712
v -0.116726 5.973520 -0.116727
v -0.091711 5.973520 -0.137256
v -0.063172 5.973520 -0.152511
v -0.032204 5.973520 -0.161904
usemtl Goma
s 1
f 65 66 68 67
f 67 68 70 69
f 69 70 72 71
f 71 72 74 73
f 73 74 76 75
f 75 76 78 77
f 77 78 80 79
f 79 80 82 81
f 81 82 84 83
f 83 84 86 85
f 85 86 88 87
f 87 88 90 89
f 89 90 92 91
f 91 92 94 93
f 93 94 96 95
f 95 96 98 97
f 97 98 100 99
f 99 100 102 101
f 101 102 104 103
f 103 104 106 105
f 105 106 108 107
f 107 108 110 109
f 109 110 112 111
f 111 112 114 113
f 113 114 116 115
f 115 116 118 117
f 117 118 120 119
f 119 120 122 121
f 121 122 124 123
f 123 124 126 125
f 114 112 248 249
f 127 128 66 65
f 125 126 128 127
f 119 121 157 156
f 159 160 192 191
f 97 99 146 145
f 75 77 135 134
f 125 127 160 159
f 103 105 149 148
f 81 83 138 137
f 109 111 152 151
f 87 89 141 140
f 115 117 155 154
f 71 73 133 132
f 93 95 144 143
f 121 123 158 157
f 99 101 147 146
f 77 79 136 135
f 127 65 129 160
f 105 107 150 149
f 83 85 139 138
f 111 113 153 152
f 67 69 131 130
f 89 91 142 141
f 117 119 156 155
f 73 75 134 133
f 95 97 145 144
f 123 125 159 158
f 101 103 148 147
f 65 67 130 129
f 79 81 137 136
f 107 109 151 150
f 85 87 140 139
f 113 115 154 153
f 69 71 132 131
f 91 93 143 142
f 182 183 215 214
f 148 149 181 180
f 137 138 170 169
f 157 158 190 189
f 146 147 179 178
f 135 136 168 167
f 155 156 188 187
f 133 134 166 165
f 144 145 177 176
f 153 154 186 185
f 131 132 164 163
f 142 143 175 174
f 151 152 184 183
f 129 130 162 161
f 140 141 173 172
f 160 129 161 192
f 149 150 182 181
f 138 139 171 170
f 158 159 191 190
f 147 148 180 179
f 136 137 169 168
f 156 157 189 188
f 145 146 178 177
f 134 135 167 166
f 154 155 187 186
f 132 133 165 164
f 143 144 176 175
f 152 153 185 184
f 130 131 163 162
f 141 142 174 173
f 150 151 183 182
f 139 140 172 171
f 193 194 195 196 197 198 199 200 201 202 203 204 205 206 207 208 209 210 211 212 213 214 215 216 217 218 219 220 221 222 223 224
f 171 172 204 203
f 191 192 224 223
f 180 181 213 212
f 169 170 202 201
f 189 190 222 221
f 178 179 211 210
f 167 168 200 199
f 187 188 220 219
f 165 166 198 197
f 176 177 209 208
f 185 186 218 217
f 163 164 196 195
f 174 175 207 206
f 183 184 216 215
f 161 162 194 193
f 172 173 205 204
f 192 161 193 224
f 181 182 214 213
f 170 171 203 202
f 190 191 223 222
f 179 180 212 211
f 168 169 201 200
f 188 189 221 220
f 177 178 210 209
f 166 167 199 198
f 186 187 219 218
f 164 165 197 196
f 175 176 208 207
f 184 185 217 216
f 162 163 195 194
f 173 174 206 205
f 251 250 282 283
f 70 68 226 227
f 92 90 237 238
f 120 118 251 252
f 76 74 229 230
f 98 96 240 241
f 126 124 254 255
f 104 102 243 244
f 68 66 225 226
f 82 80 232 233
f 110 108 246 247
f 88 86 235 236
f 116 114 249 250
f 72 70 227 228
f 94 92 238 239
f 122 120 252 253
f 100 98 241 242
f 78 76 230 231
f 128 126 255 256
f 106 104 244 245
f 84 82 233 234
f 112 110 247 248
f 90 88 236 237
f 118 116 250 251
f 74 72 228 229
f 96 94 239 240
f 124 122 253 254
f 102 100 242 243
f 80 78 231 232
f 66 128 256 225
f 108 106 245 246
f 86 84 234 235
f 285 284 316 317
f 229 228 260 261
f 240 239 271 272
f 249 248 280 281
f 227 226 258 259
f 238 237 269 270
f 247 246 278 279
f 236 235 267 268
f 256 255 287 288
f 245 244 276 277
f 234 233 265 266
f 254 253 285 286
f 243 242 274 275
f 232 231 263 264
f 252 251 283 284
f 230 229 261 262
f 241 240 272 273
f 250 249 281 282
f 228 227 259 260
f 239 238 270 271
f 248 247 279 280
f 226 225 257 258
f 237 236 268 269
f 225 256 288 257
f 246 245 277 278
f 235 234 266 267
f 255 254 286 287
f 244 243 275 276
f 233 232 264 265
f 253 252 284 285
f 242 241 273 274
f 231 230 262 263
f 319 318 350 351
f 274 273 305 306
f 263 262 294 295
f 283 282 314 315
f 261 260 292 293
f 272 271 303 304
f 281 280 312 313
f 259 258 290 291
f 270 269 301 302
f 279 278 310 311
f 268 267 299 300
f 288 287 319 320
f 277 276 308 309
f 266 265 297 298
f 286 285 317 318
f 275 274 306 307
f 264 263 295 296
f 284 283 315 316
f 262 261 293 294
f 273 272 304 305
f 282 281 313 314
f 260 259 291 292
f 271 270 302 303
f 280 279 311 312
f 258 257 289 290
f 269 268 300 301
f 257 288 320 289
f 278 277 309 310
f 267 266 298 299
f 287 286 318 319
f 276 275 307 308
f 265 264 296 297
f 321 352 384 353
f 308 307 339 340
f 297 296 328 329
f 317 316 348 349
f 306 305 337 338
f 295 294 326 327
f 315 314 346 347
f 293 292 324 325
f 304 303 335 336
f 313 312 344 345
f 291 290 322 323
f 302 301 333 334
f 311 310 342 343
f 300 299 331 332
f 320 319 351 352
f 309 308 340 341
f 298 297 329 330
f 318 317 349 350
f 307 306 338 339
f 296 295 327 328
f 316 315 347 348
f 294 293 325 326
f 305 304 336 337
f 314 313 345 346
f 292 291 323 324
f 303 302 334 335
f 312 311 343 344
f 290 289 321 322
f 301 300 332 333
f 289 320 352 321
f 310 309 341 342
f 299 298 330 331
f 354 353 384 383 382 381 380 379 378 377 376 375 374 373 372 371 370 369 368 367 366 365 364 363 362 361 360 359 358 357 356 355
f 342 341 373 374
f 331 330 362 363
f 351 350 382 383
f 340 339 371 372
f 329 328 360 361
f 349 348 380 381
f 338 337 369 370
f 327 326 358 359
f 347 346 378 379
f 325 324 356 357
f 336 335 367 368
f 345 344 376 377
f 323 322 354 355
f 334 333 365 366
f 343 342 374 375
f 332 331 363 364
f 352 351 383 384
f 341 340 372 373
f 330 329 361 362
f 350 349 381 382
f 339 338 370 371
f 328 327 359 360
f 348 347 379 380
f 326 325 357 358
f 337 336 368 369
f 346 345 377 378
f 324 323 355 356
f 335 334 366 367
f 344 343 375 376
f 322 321 353 354
f 333 332 364 365
